<?xml version="1.0" encoding="UTF-8" standalone="no"?>
<!-- Created with Inkscape (http://www.inkscape.org/) -->

<svg
   xmlns:dc="http://purl.org/dc/elements/1.1/"
   xmlns:cc="http://creativecommons.org/ns#"
   xmlns:rdf="http://www.w3.org/1999/02/22-rdf-syntax-ns#"
   xmlns:svg="http://www.w3.org/2000/svg"
   xmlns="http://www.w3.org/2000/svg"
   xmlns:xlink="http://www.w3.org/1999/xlink"
   xmlns:sodipodi="http://sodipodi.sourceforge.net/DTD/sodipodi-0.dtd"
   xmlns:inkscape="http://www.inkscape.org/namespaces/inkscape"
   version="1.1"
   id="svg2"
   width="2179.2"
   height="1225.6"
   viewBox="0 0 2179.2 1225.6"
   sodipodi:docname="christmas-2019.svg"
   inkscape:version="0.92.4 5da689c313, 2019-01-14"
   inkscape:export-filename="christmas-2019.png"
   inkscape:export-xdpi="90"
   inkscape:export-ydpi="90">
  <metadata
     id="metadata8">
    <rdf:RDF>
      <cc:Work
         rdf:about="">
        <dc:format>image/svg+xml</dc:format>
        <dc:type
           rdf:resource="http://purl.org/dc/dcmitype/StillImage" />
        <dc:title />
      </cc:Work>
    </rdf:RDF>
  </metadata>
  <defs
     id="defs6">
    <linearGradient
       inkscape:collect="always"
       id="linearGradient4797">
      <stop
         style="stop-color:#ffffff;stop-opacity:1"
         offset="0"
         id="stop4793" />
      <stop
         style="stop-color:#b8b182;stop-opacity:1"
         offset="1"
         id="stop4795" />
    </linearGradient>
    <linearGradient
       inkscape:collect="always"
       id="linearGradient1710">
      <stop
         style="stop-color:#fefefe;stop-opacity:1"
         offset="0"
         id="stop1706" />
      <stop
         style="stop-color:#f2f2f2;stop-opacity:0;"
         offset="1"
         id="stop1708" />
    </linearGradient>
    <linearGradient
       id="linearGradient1698"
       inkscape:collect="always">
      <stop
         id="stop1694"
         offset="0"
         style="stop-color:#f2f2f2;stop-opacity:1;" />
      <stop
         id="stop1696"
         offset="1"
         style="stop-color:#f2f2f2;stop-opacity:0;" />
    </linearGradient>
    <linearGradient
       id="linearGradient866"
       inkscape:collect="always">
      <stop
         id="stop862"
         offset="0"
         style="stop-color:#008000;stop-opacity:1;" />
      <stop
         id="stop864"
         offset="1"
         style="stop-color:#309c00;stop-opacity:1" />
    </linearGradient>
    <inkscape:path-effect
       end_linecap_type="zerowidth"
       miter_limit="4"
       linejoin_type="extrp_arc"
       start_linecap_type="zerowidth"
       interpolator_beta="0.2"
       interpolator_type="CubicBezierFit"
       sort_points="true"
       offset_points="0.20713165,0.39491236 | 0.73801213,0.2311835 | 0.8,0.1497927"
       is_visible="true"
       id="path-effect860"
       effect="powerstroke" />
    <inkscape:path-effect
       end_linecap_type="zerowidth"
       miter_limit="4"
       linejoin_type="extrp_arc"
       start_linecap_type="zerowidth"
       interpolator_beta="0.2"
       interpolator_type="CentripetalCatmullRom"
       sort_points="true"
       offset_points="0.076344177,0.23743813 | 0.29312495,0.80592268 | 0.63334852,0.5100575"
       is_visible="true"
       id="path-effect852"
       effect="powerstroke" />
    <inkscape:path-effect
       end_linecap_type="peak"
       miter_limit="4"
       linejoin_type="extrp_arc"
       start_linecap_type="butt"
       interpolator_beta="0.2"
       interpolator_type="CubicBezierFit"
       sort_points="true"
       offset_points="0.072740964,8.082657 | 2.495201,2.1161554 | 4,0.18287394"
       is_visible="true"
       id="path-effect832"
       effect="powerstroke" />
    <linearGradient
       gradientTransform="matrix(1.1322913,0,0,1.1322913,-4.0023245,-37.256331)"
       gradientUnits="userSpaceOnUse"
       y2="211.43863"
       x2="56.893394"
       y1="282.12018"
       x1="56.893394"
       id="linearGradient868"
       xlink:href="#linearGradient866"
       inkscape:collect="always" />
    <radialGradient
       gradientTransform="matrix(-1.3820545e-7,2.0015851,-2.0200819,-2.4361118e-7,455.98873,119.34376)"
       gradientUnits="userSpaceOnUse"
       r="20.201294"
       fy="207.17592"
       fx="38.793636"
       cy="207.17592"
       cx="38.793636"
       id="radialGradient1700"
       xlink:href="#linearGradient1698"
       inkscape:collect="always" />
    <linearGradient
       y2="212.58261"
       x2="213.28108"
       y1="258.67807"
       x1="213.28108"
       gradientTransform="matrix(0.34395972,0,0,0.35401057,1.0538313,-279.1869)"
       gradientUnits="userSpaceOnUse"
       id="linearGradient1704"
       xlink:href="#linearGradient1710"
       inkscape:collect="always" />
    <linearGradient
       inkscape:collect="always"
       xlink:href="#linearGradient4797"
       id="linearGradient4799"
       x1="910.83533"
       y1="298.86707"
       x2="3064.1531"
       y2="298.86707"
       gradientUnits="userSpaceOnUse"
       gradientTransform="translate(-905.12656,-117.23544)" />
    <inkscape:path-effect
       end_linecap_type="zerowidth"
       miter_limit="4"
       linejoin_type="extrp_arc"
       start_linecap_type="zerowidth"
       interpolator_beta="0.2"
       interpolator_type="CubicBezierFit"
       sort_points="true"
       offset_points="0.20713165,0.39491236 | 0.73801213,0.2311835 | 0.8,0.1497927"
       is_visible="true"
       id="path-effect860-0"
       effect="powerstroke" />
    <inkscape:path-effect
       end_linecap_type="zerowidth"
       miter_limit="4"
       linejoin_type="extrp_arc"
       start_linecap_type="zerowidth"
       interpolator_beta="0.2"
       interpolator_type="CentripetalCatmullRom"
       sort_points="true"
       offset_points="0.076344177,0.23743813 | 0.29312495,0.80592268 | 0.63334852,0.5100575"
       is_visible="true"
       id="path-effect852-1"
       effect="powerstroke" />
    <inkscape:path-effect
       end_linecap_type="peak"
       miter_limit="4"
       linejoin_type="extrp_arc"
       start_linecap_type="butt"
       interpolator_beta="0.2"
       interpolator_type="CubicBezierFit"
       sort_points="true"
       offset_points="0.072740964,8.082657 | 2.495201,2.1161554 | 4,0.18287394"
       is_visible="true"
       id="path-effect832-4"
       effect="powerstroke" />
    <radialGradient
       gradientTransform="matrix(-1.3820545e-7,2.0015851,-2.0200819,-2.4361118e-7,455.98873,119.34376)"
       gradientUnits="userSpaceOnUse"
       r="20.201294"
       fy="207.17592"
       fx="38.793636"
       cy="207.17592"
       cx="38.793636"
       id="radialGradient1700-8"
       xlink:href="#linearGradient1698"
       inkscape:collect="always" />
  </defs>
  <sodipodi:namedview
     pagecolor="#ffffff"
     bordercolor="#666666"
     borderopacity="1"
     objecttolerance="10"
     gridtolerance="10"
     guidetolerance="10"
     inkscape:pageopacity="0"
     inkscape:pageshadow="2"
     inkscape:window-width="1920"
     inkscape:window-height="1043"
     id="namedview4"
     showgrid="false"
     inkscape:zoom="1.6405708"
     inkscape:cx="1330.1906"
     inkscape:cy="753.7399"
     inkscape:window-x="0"
     inkscape:window-y="37"
     inkscape:window-maximized="1"
     inkscape:current-layer="layer3"
     showguides="false" />
  <g
     inkscape:groupmode="layer"
     id="layer1"
     inkscape:label="bg"
     sodipodi:insensitive="true">
    <image
       xlink:href="dandelion_in_the_snow.jpg"
       y="0"
       x="0"
       id="image10"
       preserveAspectRatio="none"
       height="1225.6"
       width="2179.2" />
  </g>
  <g
     inkscape:groupmode="layer"
     id="layer2"
     inkscape:label="text"
     sodipodi:insensitive="true"
     style="display:inline">
    <g
       transform="matrix(5.3571544,0,0,5.3571544,138.88454,-227.39046)"
       id="g1084"
       style="fill:#ffffff;stroke-width:0.19868791">
      <text
         id="text902-4"
         y="263.28867"
         x="336.90024"
         style="font-style:normal;font-variant:normal;font-weight:bold;font-stretch:normal;font-size:8.98437119px;line-height:139.99999762%;font-family:Chivo;-inkscape-font-specification:'Chivo, Bold';font-variant-ligatures:normal;font-variant-caps:normal;font-variant-numeric:normal;font-feature-settings:normal;text-align:end;letter-spacing:0px;word-spacing:0px;writing-mode:lr-tb;text-anchor:end;fill:#ffffff;fill-opacity:1;stroke:none;stroke-width:0.22075076px;stroke-linecap:butt;stroke-linejoin:miter;stroke-opacity:1"
         xml:space="preserve"><tspan
           style="font-style:normal;font-variant:normal;font-weight:bold;font-stretch:normal;font-size:8.98437119px;font-family:Chivo;-inkscape-font-specification:'Chivo, Bold';font-variant-ligatures:normal;font-variant-caps:normal;font-variant-numeric:normal;font-feature-settings:normal;text-align:end;writing-mode:lr-tb;text-anchor:end;fill:#ffffff;fill-opacity:1;stroke-width:0.22075076px"
           y="263.28867"
           x="336.90024"
           id="tspan900-9"
           sodipodi:role="line">from</tspan></text>
      <path
         style="color:#000000;font-style:normal;font-variant:normal;font-weight:normal;font-stretch:normal;font-size:medium;line-height:normal;font-family:sans-serif;font-variant-ligatures:normal;font-variant-position:normal;font-variant-caps:normal;font-variant-numeric:normal;font-variant-alternates:normal;font-feature-settings:normal;text-indent:0;text-align:start;text-decoration:none;text-decoration-line:none;text-decoration-style:solid;text-decoration-color:#000000;letter-spacing:normal;word-spacing:normal;text-transform:none;writing-mode:lr-tb;direction:ltr;text-orientation:mixed;dominant-baseline:auto;baseline-shift:baseline;text-anchor:start;white-space:normal;shape-padding:0;clip-rule:nonzero;display:inline;overflow:visible;visibility:visible;opacity:1;isolation:auto;mix-blend-mode:normal;color-interpolation:sRGB;color-interpolation-filters:linearRGB;solid-color:#000000;solid-opacity:1;vector-effect:none;fill:#ffffff;fill-opacity:1;fill-rule:nonzero;stroke:none;stroke-width:0.29107779;stroke-linecap:butt;stroke-linejoin:miter;stroke-miterlimit:10;stroke-dasharray:none;stroke-dashoffset:0;stroke-opacity:1;paint-order:stroke fill markers;color-rendering:auto;image-rendering:auto;shape-rendering:auto;text-rendering:auto;enable-background:accumulate"
         d="m 348.19075,246.36178 c -1.02711,7.42327 -3.04774,11.70475 -4.7793,13.78731 -0.86577,1.04128 -1.66241,1.47007 -2.07812,1.52539 -0.20785,0.0277 -0.30657,-0.009 -0.39062,-0.0684 -0.0841,-0.0597 -0.17987,-0.17274 -0.2461,-0.41992 l -1.41406,0.37891 c 0.13383,0.49947 0.40255,0.94641 0.81055,1.23633 0.408,0.28991 0.92941,0.39327 1.43359,0.32617 1.00836,-0.1342 2.00361,-0.8309 3.00976,-2.04102 1.30543,-1.57004 2.59665,-4.18559 3.64844,-7.81836 v 6.50782 c 2.22911,-2.16459 3.40252,-3.57239 4.02149,-5.63191 v 9.11237 h 1.46484 v -16.89469 h -1.46289 c 0,0 -0.17649,2.26585 -0.75586,4.92403 -0.38715,1.77628 -1.05165,3.42906 -1.80273,4.75586 v -9.67989 z"
         id="path1019"
         inkscape:connector-curvature="0"
         sodipodi:nodetypes="cccccccscccccccccccc" />
      <path
         style="color:#000000;font-style:normal;font-variant:normal;font-weight:normal;font-stretch:normal;font-size:medium;line-height:normal;font-family:sans-serif;font-variant-ligatures:normal;font-variant-position:normal;font-variant-caps:normal;font-variant-numeric:normal;font-variant-alternates:normal;font-feature-settings:normal;text-indent:0;text-align:start;text-decoration:none;text-decoration-line:none;text-decoration-style:solid;text-decoration-color:#000000;letter-spacing:normal;word-spacing:normal;text-transform:none;writing-mode:lr-tb;direction:ltr;text-orientation:mixed;dominant-baseline:auto;baseline-shift:baseline;text-anchor:start;white-space:normal;shape-padding:0;clip-rule:nonzero;display:inline;overflow:visible;visibility:visible;opacity:1;isolation:auto;mix-blend-mode:normal;color-interpolation:sRGB;color-interpolation-filters:linearRGB;solid-color:#000000;solid-opacity:1;vector-effect:none;fill:#ffffff;fill-opacity:1;fill-rule:nonzero;stroke:none;stroke-width:0.29107776;stroke-linecap:butt;stroke-linejoin:miter;stroke-miterlimit:4;stroke-dasharray:none;stroke-dashoffset:0;stroke-opacity:1;paint-order:stroke fill markers;color-rendering:auto;image-rendering:auto;shape-rendering:auto;text-rendering:auto;enable-background:accumulate"
         d="m 354.10481,258.77995 v 4.47656 h 1.4668 v -4.47656 z"
         id="path1021"
         inkscape:connector-curvature="0" />
      <circle
         style="opacity:1;vector-effect:none;fill:#ffffff;fill-opacity:1;fill-rule:nonzero;stroke:none;stroke-width:0.07947516;stroke-linecap:butt;stroke-linejoin:miter;stroke-miterlimit:4;stroke-dasharray:none;stroke-dashoffset:0;stroke-opacity:1;paint-order:stroke fill markers"
         id="path1025"
         cx="354.85577"
         cy="257.25717"
         r="0.72925913" />
      <path
         style="color:#000000;font-style:normal;font-variant:normal;font-weight:normal;font-stretch:normal;font-size:medium;line-height:normal;font-family:sans-serif;font-variant-ligatures:normal;font-variant-position:normal;font-variant-caps:normal;font-variant-numeric:normal;font-variant-alternates:normal;font-feature-settings:normal;text-indent:0;text-align:start;text-decoration:none;text-decoration-line:none;text-decoration-style:solid;text-decoration-color:#000000;letter-spacing:normal;word-spacing:normal;text-transform:none;writing-mode:lr-tb;direction:ltr;text-orientation:mixed;dominant-baseline:auto;baseline-shift:baseline;text-anchor:start;white-space:normal;shape-padding:0;clip-rule:nonzero;display:inline;overflow:visible;visibility:visible;opacity:1;isolation:auto;mix-blend-mode:normal;color-interpolation:sRGB;color-interpolation-filters:linearRGB;solid-color:#000000;solid-opacity:1;vector-effect:none;fill:#ffffff;fill-opacity:1;fill-rule:nonzero;stroke:none;stroke-width:0.29107779;stroke-linecap:butt;stroke-linejoin:miter;stroke-miterlimit:4;stroke-dasharray:none;stroke-dashoffset:0;stroke-opacity:1;paint-order:stroke fill markers;color-rendering:auto;image-rendering:auto;shape-rendering:auto;text-rendering:auto;enable-background:accumulate"
         d="m 358.77083,252.94401 c 0,1.89714 0,3.79427 0,5.69141 -0.74309,-0.003 -1.61007,-0.0318 -2.16381,0.55519 -0.69996,0.73294 -0.81912,1.86671 -0.56084,2.81142 0.23007,0.71434 0.90602,1.23812 1.65143,1.3004 0.8664,0.11927 1.73402,-0.11469 2.53806,-0.42092 0,-3.3125 0,-6.625 0,-9.9375 -0.48828,0 -0.97656,0 -1.46484,0 z m 0,7.11328 c 0,0.56706 0,1.13412 0,1.70118 -0.42619,0.12527 -1.17852,0.26608 -1.34858,-0.27837 -0.0582,-0.42567 -0.13772,-1.06094 0.30378,-1.30463 0.33133,-0.12573 0.69865,-0.079 1.0448,-0.11818 z"
         id="path1027"
         inkscape:connector-curvature="0" />
      <path
         style="color:#000000;font-style:normal;font-variant:normal;font-weight:normal;font-stretch:normal;font-size:medium;line-height:normal;font-family:sans-serif;font-variant-ligatures:normal;font-variant-position:normal;font-variant-caps:normal;font-variant-numeric:normal;font-variant-alternates:normal;font-feature-settings:normal;text-indent:0;text-align:start;text-decoration:none;text-decoration-line:none;text-decoration-style:solid;text-decoration-color:#000000;letter-spacing:normal;word-spacing:normal;text-transform:none;writing-mode:lr-tb;direction:ltr;text-orientation:mixed;dominant-baseline:auto;baseline-shift:baseline;text-anchor:start;white-space:normal;shape-padding:0;clip-rule:nonzero;display:inline;overflow:visible;visibility:visible;opacity:1;isolation:auto;mix-blend-mode:normal;color-interpolation:sRGB;color-interpolation-filters:linearRGB;solid-color:#000000;solid-opacity:1;vector-effect:none;fill:#ffffff;fill-opacity:1;fill-rule:nonzero;stroke:none;stroke-width:0.29107779;stroke-linecap:butt;stroke-linejoin:miter;stroke-miterlimit:4;stroke-dasharray:none;stroke-dashoffset:0;stroke-opacity:1;paint-order:stroke fill markers;color-rendering:auto;image-rendering:auto;shape-rendering:auto;text-rendering:auto;enable-background:accumulate"
         d="m 364.20833,258.5944 c -0.98976,-0.004 -2.05834,0.15569 -2.84778,0.79818 -0.76804,0.62333 -0.95455,1.77362 -0.54124,2.65132 0.28216,0.67792 0.94013,1.16219 1.66993,1.23496 0.29265,0.0962 0.77381,-0.0157 0.95737,0.15755 -0.006,1.02726 0.0123,2.05519 -0.01,3.08198 -0.007,0.38744 -0.23777,0.86516 -0.68731,0.83773 -0.44146,0.031 -0.67706,-0.43368 -0.68351,-0.81641 0.0951,-0.30658 -0.17477,-0.22489 -0.36517,-0.23242 -0.36984,0 -0.73969,0 -1.10953,0 -0.0242,1.04254 0.60581,2.14564 1.64538,2.44139 0.90309,0.27784 1.88819,-0.25317 2.3179,-1.05918 0.3502,-0.57797 0.37266,-1.2646 0.35703,-1.92033 0,-2.38247 0,-4.76495 0,-7.14742 -0.23437,-0.009 -0.46875,-0.0182 -0.70312,-0.0274 z m -0.76172,1.55079 c 0,0.5931 0,1.18619 0,1.77929 -0.42171,-0.0855 -0.9464,0.003 -1.2621,-0.35077 -0.17816,-0.32949 -0.19677,-0.85294 0.15041,-1.0843 0.32194,-0.22804 0.71804,-0.3472 1.11169,-0.34422 z"
         id="path1029"
         inkscape:connector-curvature="0" />
      <path
         style="color:#000000;font-style:normal;font-variant:normal;font-weight:normal;font-stretch:normal;font-size:medium;line-height:normal;font-family:sans-serif;font-variant-ligatures:normal;font-variant-position:normal;font-variant-caps:normal;font-variant-numeric:normal;font-variant-alternates:normal;font-feature-settings:normal;text-indent:0;text-align:start;text-decoration:none;text-decoration-line:none;text-decoration-style:solid;text-decoration-color:#000000;letter-spacing:normal;word-spacing:normal;text-transform:none;writing-mode:lr-tb;direction:ltr;text-orientation:mixed;dominant-baseline:auto;baseline-shift:baseline;text-anchor:start;white-space:normal;shape-padding:0;clip-rule:nonzero;display:inline;overflow:visible;visibility:visible;opacity:1;isolation:auto;mix-blend-mode:normal;color-interpolation:sRGB;color-interpolation-filters:linearRGB;solid-color:#000000;solid-opacity:1;vector-effect:none;fill:#ffffff;fill-opacity:1;fill-rule:nonzero;stroke:none;stroke-width:0.29107779;stroke-linecap:butt;stroke-linejoin:miter;stroke-miterlimit:4;stroke-dasharray:none;stroke-dashoffset:0;stroke-opacity:1;paint-order:stroke fill markers;color-rendering:auto;image-rendering:auto;shape-rendering:auto;text-rendering:auto;enable-background:accumulate"
         d="m 365.72464,259.41877 c -0.86996,1.08734 -0.67456,2.98782 0.54964,3.67189 0.84091,0.4699 2.43065,0.32994 3.27613,0.17925 l -0.002,-4.73996 c -1.28916,-0.008 -3.01464,-0.0311 -3.82349,0.88882 z m 2.35869,0.66978 v 1.97265 c -0.48776,0.0862 -1.08074,-0.0802 -1.30888,-0.55521 -0.10275,-0.29158 -0.15568,-0.6218 -0.0694,-0.92417 0.073,-0.2645 0.34691,-0.38213 0.59645,-0.41424 0.25891,-0.042 0.52235,-0.0412 0.78186,-0.079 z"
         id="path1031"
         inkscape:connector-curvature="0"
         sodipodi:nodetypes="csccccccccccc" />
      <path
         style="color:#000000;font-style:normal;font-variant:normal;font-weight:normal;font-stretch:normal;font-size:medium;line-height:normal;font-family:sans-serif;font-variant-ligatures:normal;font-variant-position:normal;font-variant-caps:normal;font-variant-numeric:normal;font-variant-alternates:normal;font-feature-settings:normal;text-indent:0;text-align:start;text-decoration:none;text-decoration-line:none;text-decoration-style:solid;text-decoration-color:#000000;letter-spacing:normal;word-spacing:normal;text-transform:none;writing-mode:lr-tb;direction:ltr;text-orientation:mixed;dominant-baseline:auto;baseline-shift:baseline;text-anchor:start;white-space:normal;shape-padding:0;clip-rule:nonzero;display:inline;overflow:visible;visibility:visible;opacity:1;isolation:auto;mix-blend-mode:normal;color-interpolation:sRGB;color-interpolation-filters:linearRGB;solid-color:#000000;solid-opacity:1;vector-effect:none;fill:#ffffff;fill-opacity:1;fill-rule:nonzero;stroke:none;stroke-width:0.29107773;stroke-linecap:butt;stroke-linejoin:miter;stroke-miterlimit:4;stroke-dasharray:none;stroke-dashoffset:0;stroke-opacity:1;paint-order:stroke fill markers;color-rendering:auto;image-rendering:auto;shape-rendering:auto;text-rendering:auto;enable-background:accumulate"
         d="m 370.12263,258.27638 v 4.97644 h 1.46449 v -3.63647 c 0.50406,-0.21782 1.0042,-0.34505 1.52898,-0.28415 l 1.07032,-0.94243 c -0.33311,-0.36489 -0.82434,-0.41716 -1.29866,-0.42879 -1.06315,0.0607 -1.73027,0.3154 -2.76513,0.3154 z"
         id="path1033"
         inkscape:connector-curvature="0"
         sodipodi:nodetypes="cccccccc" />
      <path
         style="color:#000000;font-style:normal;font-variant:normal;font-weight:normal;font-stretch:normal;font-size:medium;line-height:normal;font-family:sans-serif;font-variant-ligatures:normal;font-variant-position:normal;font-variant-caps:normal;font-variant-numeric:normal;font-variant-alternates:normal;font-feature-settings:normal;text-indent:0;text-align:start;text-decoration:none;text-decoration-line:none;text-decoration-style:solid;text-decoration-color:#000000;letter-spacing:normal;word-spacing:normal;text-transform:none;writing-mode:lr-tb;direction:ltr;text-orientation:mixed;dominant-baseline:auto;baseline-shift:baseline;text-anchor:start;white-space:normal;shape-padding:0;clip-rule:nonzero;display:inline;overflow:visible;visibility:visible;opacity:1;isolation:auto;mix-blend-mode:normal;color-interpolation:sRGB;color-interpolation-filters:linearRGB;solid-color:#000000;solid-opacity:1;vector-effect:none;fill:#ffffff;fill-opacity:1;fill-rule:nonzero;stroke:none;stroke-width:0.29107779;stroke-linecap:butt;stroke-linejoin:miter;stroke-miterlimit:4;stroke-dasharray:none;stroke-dashoffset:0;stroke-opacity:1;paint-order:stroke fill markers;color-rendering:auto;image-rendering:auto;shape-rendering:auto;text-rendering:auto;enable-background:accumulate"
         d="m 375.70052,253.14519 c 0,1.85417 0,3.70833 0,5.5625 -0.81968,0.0863 -1.76802,0.20334 -2.27841,0.93874 -0.73973,0.92455 -0.82186,2.50057 0.17122,3.27865 0.92843,0.64138 2.15733,0.42908 3.16167,0.10408 0.43926,0.004 0.44238,-0.30709 0.41036,-0.63977 0,-3.0814 0,-6.1628 0,-9.2442 -0.48828,0 -0.97656,0 -1.46484,0 z m 0,7.00586 c 0,0.53385 0,1.06771 0,1.60156 -0.42486,0.11753 -1.21979,0.29387 -1.3647,-0.26973 -0.11893,-0.55377 0.24148,-1.21363 0.84726,-1.24381 0.17236,-0.0298 0.34781,-0.0435 0.51744,-0.088 z"
         id="path1037"
         inkscape:connector-curvature="0" />
    </g>
    <text
       xml:space="preserve"
       style="font-style:normal;font-weight:normal;font-size:40px;line-height:1.25;font-family:sans-serif;letter-spacing:0px;word-spacing:0px;fill:#000000;fill-opacity:1;stroke:none"
       x="729.27338"
       y="320.47342"
       id="text4803"><tspan
         sodipodi:role="line"
         id="tspan4801"
         x="729.27338"
         y="356.5036" /></text>
    <text
       id="text4815"
       y="545.40771"
       x="110.66548"
       style="font-style:normal;font-variant:normal;font-weight:normal;font-stretch:normal;font-size:400.62057495px;line-height:1.25;font-family:Chivo;-inkscape-font-specification:'Chivo, Normal';font-variant-ligatures:normal;font-variant-caps:normal;font-variant-numeric:normal;font-feature-settings:normal;text-align:start;letter-spacing:0px;word-spacing:0px;writing-mode:lr-tb;text-anchor:start;fill:#ffffff;fill-opacity:1;stroke:none;stroke-width:0.99999994"
       xml:space="preserve"><tspan
         style="font-style:normal;font-variant:normal;font-weight:normal;font-stretch:normal;font-size:400.62057495px;font-family:Chivo;-inkscape-font-specification:'Chivo, Normal';font-variant-ligatures:normal;font-variant-caps:normal;font-variant-numeric:normal;font-feature-settings:normal;text-align:start;writing-mode:lr-tb;text-anchor:start;fill:#ffffff;fill-opacity:1;stroke-width:0.99999994"
         y="545.40771"
         x="110.66548"
         id="tspan4813"
         sodipodi:role="line">2020</tspan></text>
    <g
       transform="matrix(3.9703949,0,0,3.9703949,1315.4842,-72.714769)"
       id="g896"
       style="stroke-width:0.32793772"
       inkscape:transform-center-x="-184.47342"
       inkscape:transform-center-y="-468.94177">
      <g
         id="g1626"
         style="stroke-width:0.32793772">
        <path
           style="fill:#4d4b36;fill-opacity:1;fill-rule:nonzero;stroke:none;stroke-width:1.65794837;stroke-linecap:butt;stroke-linejoin:miter;stroke-miterlimit:4;stroke-dasharray:none;stroke-opacity:1"
           d="m 46.448104,281.62346 c 0,0.06 0.04642,-0.34779 0.03978,-0.67659 -0.0013,-0.065 -0.0042,-0.13365 -0.0091,-0.20577 -0.02519,-0.37079 -0.04347,-0.82834 -0.05558,-1.3455 -0.02987,-1.27555 -0.023,-2.93579 0.01,-4.77256 0.07094,-3.94835 0.261791,-8.7477 0.497364,-13.20145 0.26528,-5.01539 0.580212,-9.49705 0.888783,-12.87903 0.175031,-1.91836 0.317676,-3.16698 0.446532,-4.20358 0.05794,-0.46608 0.108673,-0.83915 0.0906,-0.91961 -0.01108,-0.0493 -0.04163,-0.0259 -0.132376,0.10066 -0.0399,0.0557 -0.306407,0.45812 -0.655525,0.8319 0.744013,-0.9489 1.869254,-1.92465 3.452439,-2.88686 1.635145,-0.99379 3.640173,-1.90139 5.962713,-2.72282 4.919996,-1.74008 10.939209,-2.98104 17.18406,-3.94444 12.363864,-1.90739 27.743611,-2.87356 40.107471,-4.78094 6.38855,-0.97346 11.70699,-2.16917 15.72394,-3.87845 2.18923,-0.93156 4.14652,-2.0806 5.66229,-3.55592 1.67652,-1.63178 2.79343,-3.65403 3.02486,-6.0146 0.11741,-1.19754 -0.006,-2.36858 -0.29521,-3.48643 -0.29811,-1.15151 -0.77525,-2.25872 -1.36408,-3.31455 -1.23138,-2.20794 -3.07865,-4.41507 -5.29926,-6.60261 -5.01794,-4.94321 -12.70928,-10.52008 -22.04961,-16.46203 -16.339732,-10.46088 -25.67567,-17.92066 -31.181431,-23.31776 -3.201931,-3.13873 -5.204092,-5.67598 -6.430593,-7.71639 -1.330176,-2.21288 -1.748193,-3.84083 -1.776015,-5.01558 -0.02868,-1.21093 0.348099,-2.23954 1.122752,-3.20774 0.832364,-1.04033 2.144082,-2.02603 3.937759,-2.93566 3.491282,-1.77052 8.341999,-3.03671 14.083495,-4.12458 4.92386,-0.93294 10.464186,-1.6795 15.458433,-2.69597 2.13163,-0.43385 4.25959,-0.94911 5.98361,-1.60499 0.81153,-0.30873 1.59466,-0.67103 2.27237,-1.10731 0.6401,-0.41207 1.27132,-0.94435 1.71503,-1.64142 0.21894,-0.34397 0.39293,-0.72953 0.49473,-1.1551 0.1,-0.41797 0.12406,-0.84858 0.0723,-1.28309 -0.0994,-0.83479 -0.46828,-1.61373 -0.99252,-2.33707 -0.96259,-1.32816 -2.66297,-2.75887 -5.22819,-4.40052 -2.40597,-1.53972 -5.71735,-3.35554 -10.251109,-5.5452 -4.224036,-2.04008 -9.571132,-4.43469 -16.386027,-7.28808 -4.720785,-1.89866 -9.35108,-4.73112 -13.188071,-9.34942 C 66.240416,98.191815 63.46218,93.029037 61.489747,85.544506 59.807964,79.162863 58.69067,71.044246 58.368987,60.202758 58.086977,50.698345 58.41305,39.16665 59.471442,24.490617 l -0.167728,-0.196858 -0.196858,0.167728 c -1.285983,14.665047 -1.825554,26.207567 -1.741544,35.760547 0.09577,10.889708 1.007971,19.138364 2.539188,25.715504 1.798558,7.725467 4.488486,13.254404 7.719181,17.446422 3.956588,5.1339 8.838639,8.37673 13.830619,10.58646 6.761847,2.88879 12.035669,5.30793 16.173892,7.3616 4.450628,2.2087 7.613118,4.00765 9.842898,5.49241 2.43866,1.62386 3.68136,2.82179 4.23339,3.65471 0.28511,0.43018 0.32756,0.67692 0.32405,0.7689 -0.002,0.046 -0.0139,0.062 -0.0227,0.0739 0.002,-0.003 -0.038,0.0526 -0.0643,0.0844 -0.0904,0.10926 -0.28019,0.29293 -0.68033,0.5243 -0.40969,0.2369 -0.95366,0.47393 -1.63518,0.70635 -1.45681,0.49682 -3.35911,0.91128 -5.4513,1.28097 -4.801348,0.84839 -10.397803,1.48202 -15.473599,2.31428 -5.80633,0.95205 -11.213267,2.15435 -15.374916,4.06787 -2.155319,0.991 -4.156084,2.2544 -5.655156,3.92802 -1.489739,1.66319 -2.508133,3.7659 -2.601337,6.34046 -0.08593,2.37376 0.620011,4.97794 2.2022,7.84681 1.453565,2.63565 3.720199,5.63085 7.08339,9.08982 5.782717,5.94738 15.372497,13.85118 31.787768,24.64481 9.14881,6.05723 16.18928,11.4823 20.47951,16.02605 1.89368,2.00559 3.12513,3.70915 3.78937,5.09037 0.30775,0.63995 0.46754,1.1576 0.53232,1.55841 0.0617,0.38206 0.0342,0.6346 -0.0132,0.80004 -0.0614,0.21418 -0.24843,0.54359 -0.80159,0.98661 -0.59818,0.47907 -1.60314,1.06251 -3.26375,1.66246 -3.0873,1.1154 -7.58165,1.99092 -13.80537,2.71117 -10.47675,1.21245 -25.255073,1.67747 -40.311763,3.51997 -6.481136,0.79311 -13.295343,1.92834 -19.220645,3.77259 -2.825416,0.87941 -5.599779,1.96518 -8.119753,3.34109 -2.426186,1.32471 -4.760106,2.99607 -6.676331,5.14777 -0.517142,0.5659 -0.869577,1.13704 -1.080761,1.51073 -0.225513,0.39904 -0.410923,0.79086 -0.559666,1.13403 -0.290538,0.67031 -0.54233,1.38963 -0.766111,2.11772 -0.431715,1.40463 -0.84316,3.11944 -1.2468,5.10165 -0.749021,3.67831 -1.480121,8.32812 -2.188851,13.43949 -0.648865,4.67962 -1.217859,9.29485 -1.732582,13.46256 -0.234719,1.90053 -0.442114,3.57524 -0.623724,4.96451 -0.07413,0.5671 -0.139854,1.05532 -0.203352,1.51172 -0.01212,0.0871 -0.02172,0.1721 -0.02927,0.25502 -0.04472,0.49101 -0.01802,0.93793 -0.01802,1.35946 z"
           id="path1624"
           inkscape:connector-curvature="0"
           sodipodi:nodetypes="csssc"
           inkscape:path-effect="#path-effect832-4"
           inkscape:original-d="m 38.365447,281.62346 c 0,-3.55462 2.524302,-38.4308 4.784808,-41.0642 20.933802,-24.38704 145.526235,1.27608 64.760415,-51.1331 C -12.885284,111.0413 187.09102,157.08971 82.013555,112.64812 59.87731,103.28579 54.880785,79.648877 59.289149,24.476052" />
      </g>
    </g>
    <text
       xml:space="preserve"
       style="font-style:normal;font-variant:normal;font-weight:300;font-stretch:normal;font-size:115.77357483px;line-height:1.25;font-family:Chivo;-inkscape-font-specification:'Chivo, Light';font-variant-ligatures:normal;font-variant-caps:normal;font-variant-numeric:normal;font-feature-settings:normal;text-align:start;letter-spacing:0px;word-spacing:0px;writing-mode:lr-tb;text-anchor:start;fill:#ffffff;fill-opacity:1;stroke:none;stroke-width:1"
       x="130.00359"
       y="218.74779"
       id="text5193"><tspan
         sodipodi:role="line"
         id="tspan5191"
         x="130.00359"
         y="218.74779"
         style="font-style:normal;font-variant:normal;font-weight:300;font-stretch:normal;font-size:115.77357483px;font-family:Chivo;-inkscape-font-specification:'Chivo, Light';font-variant-ligatures:normal;font-variant-caps:normal;font-variant-numeric:normal;font-feature-settings:normal;text-align:start;writing-mode:lr-tb;text-anchor:start;fill:#ffffff;fill-opacity:1;stroke-width:1">Merry Christmas</tspan></text>
    <text
       id="text5197"
       y="682.72174"
       x="128.39763"
       style="font-style:normal;font-variant:normal;font-weight:300;font-stretch:normal;font-size:121.23815918px;line-height:1.25;font-family:Chivo;-inkscape-font-specification:'Chivo, Light';font-variant-ligatures:normal;font-variant-caps:normal;font-variant-numeric:normal;font-feature-settings:normal;text-align:start;letter-spacing:0px;word-spacing:0px;writing-mode:lr-tb;text-anchor:start;fill:#ffffff;fill-opacity:1;stroke:none;stroke-width:1"
       xml:space="preserve"><tspan
         style="font-style:normal;font-variant:normal;font-weight:300;font-stretch:normal;font-size:121.23815918px;font-family:Chivo;-inkscape-font-specification:'Chivo, Light';font-variant-ligatures:normal;font-variant-caps:normal;font-variant-numeric:normal;font-feature-settings:normal;text-align:start;writing-mode:lr-tb;text-anchor:start;fill:#ffffff;fill-opacity:1;stroke-width:1"
         y="682.72174"
         x="128.39763"
         id="tspan5195"
         sodipodi:role="line">Happy New Year</tspan></text>
  </g>
  <g
     inkscape:groupmode="layer"
     id="layer3"
     inkscape:label="dand"
     style="display:inline">
    <image
       xlink:href="dandelion.png"
       width="140"
       height="407"
       preserveAspectRatio="none"
       id="image278"
       x="1519.8738"
       y="144.29036" />
  </g>
</svg>
