<?xml version="1.0" encoding="UTF-8" standalone="no"?>
<!-- Created with Inkscape (http://www.inkscape.org/) -->

<svg
   xmlns:dc="http://purl.org/dc/elements/1.1/"
   xmlns:cc="http://creativecommons.org/ns#"
   xmlns:rdf="http://www.w3.org/1999/02/22-rdf-syntax-ns#"
   xmlns:svg="http://www.w3.org/2000/svg"
   xmlns="http://www.w3.org/2000/svg"
   xmlns:xlink="http://www.w3.org/1999/xlink"
   xmlns:sodipodi="http://sodipodi.sourceforge.net/DTD/sodipodi-0.dtd"
   xmlns:inkscape="http://www.inkscape.org/namespaces/inkscape"
   width="15cm"
   height="10cm"
   viewBox="0 0 150 99.999998"
   version="1.1"
   id="svg8"
   inkscape:version="0.92.2 2405546, 2018-03-11"
   sodipodi:docname="kerstkaartje-2018.svg">
  <defs
     id="defs2">
    <linearGradient
       id="linearGradient1710"
       inkscape:collect="always">
      <stop
         id="stop1706"
         offset="0"
         style="stop-color:#fefefe;stop-opacity:1" />
      <stop
         id="stop1708"
         offset="1"
         style="stop-color:#f2f2f2;stop-opacity:0;" />
    </linearGradient>
    <linearGradient
       inkscape:collect="always"
       id="linearGradient1698">
      <stop
         style="stop-color:#f2f2f2;stop-opacity:1;"
         offset="0"
         id="stop1694" />
      <stop
         style="stop-color:#f2f2f2;stop-opacity:0;"
         offset="1"
         id="stop1696" />
    </linearGradient>
    <linearGradient
       inkscape:collect="always"
       id="linearGradient1651">
      <stop
         style="stop-color:#f2f2f2;stop-opacity:1;"
         offset="0"
         id="stop1647" />
      <stop
         style="stop-color:#fefefe;stop-opacity:1"
         offset="1"
         id="stop1649" />
    </linearGradient>
    <linearGradient
       id="linearGradient971"
       inkscape:collect="always">
      <stop
         id="stop967"
         offset="0"
         style="stop-color:#008000;stop-opacity:1;" />
      <stop
         style="stop-color:#1f9200;stop-opacity:1;"
         offset="0.20662253"
         id="stop973" />
      <stop
         id="stop975"
         offset="0.70074511"
         style="stop-color:#289700;stop-opacity:1;" />
      <stop
         id="stop969"
         offset="1"
         style="stop-color:#309c00;stop-opacity:1" />
    </linearGradient>
    <linearGradient
       inkscape:collect="always"
       id="linearGradient866">
      <stop
         style="stop-color:#008000;stop-opacity:1;"
         offset="0"
         id="stop862" />
      <stop
         style="stop-color:#309c00;stop-opacity:1"
         offset="1"
         id="stop864" />
    </linearGradient>
    <inkscape:path-effect
       effect="powerstroke"
       id="path-effect860"
       is_visible="true"
       offset_points="0.20713165,0.39491236 | 0.73801213,0.2311835 | 0.8,0.1497927"
       sort_points="true"
       interpolator_type="CubicBezierFit"
       interpolator_beta="0.2"
       start_linecap_type="zerowidth"
       linejoin_type="extrp_arc"
       miter_limit="4"
       end_linecap_type="zerowidth" />
    <inkscape:path-effect
       effect="powerstroke"
       id="path-effect852"
       is_visible="true"
       offset_points="0.076344177,0.23743813 | 0.29312495,0.80592268 | 0.63334852,0.5100575"
       sort_points="true"
       interpolator_type="CentripetalCatmullRom"
       interpolator_beta="0.2"
       start_linecap_type="zerowidth"
       linejoin_type="extrp_arc"
       miter_limit="4"
       end_linecap_type="zerowidth" />
    <inkscape:path-effect
       effect="powerstroke"
       id="path-effect832"
       is_visible="true"
       offset_points="0.072740964,8.082657 | 2.495201,2.1161554 | 4,0.18287394"
       sort_points="true"
       interpolator_type="CubicBezierFit"
       interpolator_beta="0.2"
       start_linecap_type="butt"
       linejoin_type="extrp_arc"
       miter_limit="4"
       end_linecap_type="peak" />
    <linearGradient
       inkscape:collect="always"
       xlink:href="#linearGradient866"
       id="linearGradient868"
       x1="56.893394"
       y1="282.12018"
       x2="56.893394"
       y2="211.43863"
       gradientUnits="userSpaceOnUse"
       gradientTransform="matrix(1.1322913,0,0,1.1322913,-4.0023245,-37.256331)" />
    <linearGradient
       inkscape:collect="always"
       xlink:href="#linearGradient971"
       id="linearGradient898"
       gradientUnits="userSpaceOnUse"
       gradientTransform="matrix(1.1322913,0,0,1.1322913,-4.0023245,-37.256331)"
       x1="56.893394"
       y1="282.12018"
       x2="56.893394"
       y2="72.409256" />
    <linearGradient
       inkscape:collect="always"
       xlink:href="#linearGradient1651"
       id="linearGradient1653"
       x1="213.28108"
       y1="258.67807"
       x2="213.28108"
       y2="212.58261"
       gradientUnits="userSpaceOnUse"
       gradientTransform="matrix(0.34395972,0,0,0.35401057,1.0538313,179.95591)" />
    <linearGradient
       inkscape:collect="always"
       xlink:href="#linearGradient971"
       id="linearGradient1655"
       gradientUnits="userSpaceOnUse"
       gradientTransform="matrix(1.1322913,0,0,1.1322913,-4.0023245,-37.256331)"
       x1="56.893394"
       y1="282.12018"
       x2="56.893394"
       y2="72.409256" />
    <radialGradient
       inkscape:collect="always"
       xlink:href="#linearGradient1698"
       id="radialGradient1700"
       cx="38.793636"
       cy="207.17592"
       fx="38.793636"
       fy="207.17592"
       r="20.201294"
       gradientUnits="userSpaceOnUse"
       gradientTransform="matrix(-1.3820545e-7,2.0015851,-2.0200819,-2.4361118e-7,455.98873,119.34376)" />
    <linearGradient
       inkscape:collect="always"
       xlink:href="#linearGradient1710"
       id="linearGradient1704"
       gradientUnits="userSpaceOnUse"
       gradientTransform="matrix(0.34395972,0,0,0.35401057,1.0538313,-279.1869)"
       x1="213.28108"
       y1="258.67807"
       x2="213.28108"
       y2="212.58261" />
  </defs>
  <sodipodi:namedview
     id="base"
     pagecolor="#ffffff"
     bordercolor="#666666"
     borderopacity="1.0"
     inkscape:pageopacity="0.0"
     inkscape:pageshadow="2"
     inkscape:zoom="0.35"
     inkscape:cx="400"
     inkscape:cy="560"
     inkscape:document-units="mm"
     inkscape:current-layer="layer1"
     showgrid="false"
     units="cm"
     showguides="false"
     inkscape:guide-bbox="true"
     showborder="true"
     borderlayer="true"
     inkscape:snap-global="true">
    <sodipodi:guide
       position="11.798986,47.732263"
       orientation="1,0"
       id="guide1657"
       inkscape:locked="false" />
    <sodipodi:guide
       position="134.97325,91.710302"
       orientation="0,1"
       id="guide1661"
       inkscape:locked="false" />
    <sodipodi:guide
       position="138.36993,66.860922"
       orientation="1,0"
       id="guide1663"
       inkscape:locked="false" />
    <sodipodi:guide
       position="50.056305,9.296171"
       orientation="0,1"
       id="guide1665"
       inkscape:locked="false" />
    <sodipodi:guide
       position="75.028273,72.949404"
       orientation="1,0"
       id="guide888"
       inkscape:locked="false" />
  </sodipodi:namedview>
  <metadata
     id="metadata5">
    <rdf:RDF>
      <cc:Work
         rdf:about="">
        <dc:format>image/svg+xml</dc:format>
        <dc:type
           rdf:resource="http://purl.org/dc/dcmitype/StillImage" />
        <dc:title></dc:title>
      </cc:Work>
    </rdf:RDF>
  </metadata>
  <g
     inkscape:groupmode="layer"
     id="layer2"
     inkscape:label="bg"
     transform="translate(0,-179.40001)"
     sodipodi:insensitive="true">
    <rect
       style="opacity:1;vector-effect:none;fill:url(#linearGradient1653);fill-opacity:1;fill-rule:nonzero;stroke:none;stroke-width:0.27282354;stroke-linecap:butt;stroke-linejoin:miter;stroke-miterlimit:4;stroke-dasharray:none;stroke-dashoffset:0;stroke-opacity:1;paint-order:stroke fill markers"
       id="rect1645"
       width="152.60373"
       height="103.1317"
       x="-1.3363475"
       y="178.00555" />
  </g>
  <g
     inkscape:label="fg"
     inkscape:groupmode="layer"
     id="layer1"
     transform="translate(0,-197.00001)"
     style="display:inline">
    <g
       id="g896"
       transform="matrix(0.34449866,0,0,0.34449866,-0.82330509,190.68493)">
      <g
         id="g1622">
        <path
           style="fill:url(#linearGradient1655);fill-opacity:1;fill-rule:nonzero;stroke:none;stroke-width:5.05568075;stroke-linecap:butt;stroke-linejoin:miter;stroke-miterlimit:4;stroke-dasharray:none;stroke-opacity:1"
           d="m 46.448104,281.62346 c 0,-0.31008 0.05489,-0.69011 -0.0072,-1.14672 -0.04528,-0.3328 -0.0904,-0.69998 -0.135944,-1.10522 -0.111971,-0.99643 -0.222799,-2.19115 -0.327286,-3.49841 -0.224921,-2.81403 -0.414078,-6.06041 -0.536328,-9.09995 -0.138383,-3.44063 -0.182654,-6.36647 -0.149703,-8.62905 0.01732,-1.18926 0.06388,-2.12514 0.0766,-2.63358 0.0067,-0.26622 0.0026,-0.41231 -0.06506,-0.36885 -0.07464,0.0479 -0.181685,0.32257 -0.774139,0.93438 0.77361,-0.98399 1.960876,-2.03072 3.626558,-3.09832 1.715545,-1.09954 3.810861,-2.14022 6.220152,-3.12101 5.09637,-2.07466 11.326882,-3.77298 17.751651,-5.23579 14.678937,-3.34214 29.9453,-5.59069 41.223,-8.31918 6.54707,-1.58397 11.95431,-3.30781 15.98885,-5.42371 2.19883,-1.15317 4.12041,-2.49054 5.57709,-4.09301 1.59782,-1.75774 2.64547,-3.85374 2.80621,-6.24125 0.1686,-2.50444 -0.67116,-4.81885 -1.9334,-6.85249 -1.35131,-2.17716 -3.3395,-4.2824 -5.70291,-6.31951 -5.33851,-4.60141 -13.44343,-9.56727 -23.2424,-14.72596 -16.22517,-8.59415 -25.745133,-14.75794 -31.528044,-19.24053 -3.364661,-2.6081 -5.565859,-4.72759 -6.994656,-6.43934 -1.560392,-1.86942 -2.165248,-3.21191 -2.36619,-4.11515 -0.103767,-0.46644 -0.107752,-0.84833 -0.05614,-1.17052 0.05352,-0.33408 0.177581,-0.67119 0.400463,-1.02465 0.470935,-0.74684 1.367169,-1.53757 2.782159,-2.31749 2.751855,-1.51679 6.812729,-2.65777 11.740952,-3.67189 4.211596,-0.86665 8.996797,-1.58622 13.25394,-2.53535 1.810103,-0.40357 3.624306,-0.88211 5.060533,-1.48496 0.675221,-0.28342 1.341243,-0.62443 1.906473,-1.04633 0.53249,-0.39746 1.08428,-0.94745 1.39525,-1.69619 0.15383,-0.37036 0.24097,-0.77253 0.24236,-1.19622 0.001,-0.41233 -0.0786,-0.80934 -0.21832,-1.18327 -0.26429,-0.7071 -0.74443,-1.33883 -1.33166,-1.91439 -1.09406,-1.07234 -2.861397,-2.23933 -5.468593,-3.59016 -2.440018,-1.26421 -5.740236,-2.75252 -10.202576,-4.54314 -4.15671,-1.66797 -9.378864,-3.62122 -15.992182,-5.94342 C 64.679686,127.9273 60.10164,125.11347 56.15377,120.12928 52.911815,116.0363 50.045879,110.43816 47.664449,102.46617 43.70274,89.204098 41.607475,71.864143 39.382796,42.394287 l -0.194697,-0.170231 -0.170231,0.194697 c 1.728183,29.490115 3.421325,46.92823 7.075412,60.493417 2.198934,8.16317 4.963178,14.09931 8.268341,18.58486 4.058195,5.50751 8.930514,8.79132 14.144339,10.7414 6.567738,2.36253 11.727652,4.34813 15.811116,6.04016 4.390858,1.81941 7.565998,3.31164 9.855538,4.55299 2.49761,1.35415 3.884227,2.38134 4.582183,3.12562 0.366712,0.39105 0.472788,0.63238 0.484069,0.70935 -0.0147,-0.10031 0.0069,0.15229 -0.01783,-0.0272 -0.007,-0.0511 9.13e-4,-0.0981 0.0075,-0.13346 0.01118,-0.0604 -0.03936,0.031 -0.272048,0.18114 -0.258358,0.16673 -0.639973,0.35432 -1.176483,0.55288 -1.144389,0.42354 -2.707255,0.79302 -4.483439,1.13267 -4.054643,0.77534 -8.89864,1.38365 -13.263656,2.15172 -4.973907,0.87522 -9.634348,1.96312 -13.097037,3.66525 -1.792756,0.88124 -3.487947,2.03468 -4.662305,3.61269 -0.589093,0.79158 -1.053456,1.69912 -1.317817,2.72772 -0.25851,1.00583 -0.312,2.07459 -0.148807,3.19124 0.306012,2.09389 1.363369,4.3089 3.194239,6.69002 1.691225,2.19951 4.15791,4.69194 7.675038,7.56407 6.049295,4.93993 15.796265,11.48788 32.090643,20.38954 9.61233,5.28648 17.01552,10.13376 21.55871,14.34708 2.00402,1.85851 3.30737,3.46367 4.02038,4.78609 0.66069,1.2254 0.68439,1.95602 0.59595,2.34258 -0.0662,0.28946 -0.27582,0.73259 -0.91514,1.32589 -0.65826,0.61089 -1.73456,1.34009 -3.45173,2.1288 -3.1874,1.464 -7.83334,2.80108 -14.21841,4.11421 -10.77021,2.21495 -25.978377,4.02426 -41.379905,7.04642 -6.635597,1.30206 -13.57191,2.93052 -19.552593,5.11328 -2.85008,1.04018 -5.627752,2.25727 -8.131407,3.70913 -2.404655,1.39444 -4.714866,3.09617 -6.600343,5.21236 -0.793936,0.8534 -1.281837,1.78707 -1.55838,2.38322 -0.298449,0.64338 -0.536134,1.30404 -0.728818,1.92427 -0.370163,1.19153 -0.671134,2.54923 -0.928085,4.01543 -0.478539,2.73061 -0.838193,6.03941 -1.137621,9.62914 -0.280301,3.36043 -0.469607,6.4616 -0.676557,9.50372 -0.09103,1.33814 -0.181031,2.58631 -0.272353,3.58242 -0.03726,0.40637 -0.07537,0.77789 -0.114317,1.09862 -0.05386,0.44347 0.0066,0.79421 0.0066,0.99596 z"
           id="path829"
           inkscape:connector-curvature="0"
           sodipodi:nodetypes="csssc"
           inkscape:path-effect="#path-effect832"
           inkscape:original-d="m 38.365447,281.62346 c 0,-3.55462 -0.515283,-26.70669 1.745223,-29.34009 20.933802,-24.38704 149.98214,-11.16093 65.19464,-56.77804 -119.929661,-64.52418 65.69531,-28.3627 -36.318547,-64.6197 C 46.339896,122.83665 42.608044,93.23708 39.200332,42.40652" />
      </g>
      <path
         sodipodi:nodetypes="cc"
         inkscape:original-d="m 105.83713,244.45581 c -15.589931,37.40905 48.16475,16.95707 16.25694,-2.97917"
         inkscape:path-effect="#path-effect852"
         inkscape:connector-curvature="0"
         id="path850"
         d="m 105.83713,244.45581 c -0.76042,1.70083 -1.9268,4.53092 -2.49573,7.54567 -0.23782,1.26022 -0.38908,2.58461 -0.36492,3.90934 0.0512,2.80724 0.89509,5.32971 2.8059,7.21226 0.59727,0.58844 1.27315,1.08695 2.00974,1.4955 1.33355,0.73966 2.90899,1.21295 4.65787,1.39941 2.46652,0.26298 5.18836,-0.056 7.82768,-0.88866 2.57794,-0.81333 4.98727,-2.08905 6.90748,-3.6786 0.12944,-0.10715 0.25654,-0.21562 0.38122,-0.32537 1.58302,-1.39341 3.0031,-3.21923 3.60246,-5.40768 0.29929,-1.0928 0.37987,-2.22884 0.20943,-3.39021 -0.17717,-1.2073 -0.61855,-2.39538 -1.30128,-3.5541 -1.90203,-3.2281 -5.37589,-5.71218 -7.98291,-7.29673 2.58786,1.6616 5.94177,4.23213 7.66321,7.47577 0.61201,1.15317 0.97097,2.30465 1.0773,3.44084 0.10203,1.09034 -0.0318,2.13241 -0.35802,3.11584 -0.65294,1.96828 -2.03744,3.59216 -3.5696,4.83793 -0.12061,0.0981 -0.24358,0.19484 -0.36884,0.2903 -1.86285,1.41957 -4.18989,2.51395 -6.64619,3.17477 -2.52029,0.67803 -5.03808,0.86485 -7.25577,0.58858 -1.56821,-0.19537 -2.93376,-0.61375 -4.08345,-1.20322 -0.63546,-0.32582 -1.22559,-0.71277 -1.76047,-1.16895 -1.69168,-1.44276 -2.73534,-3.50343 -3.03197,-6.16735 -0.13922,-1.25021 -0.10201,-2.53597 0.0504,-3.78672 0.36608,-3.0048 1.34727,-5.8637 2.02649,-7.61862 z"
         style="fill:#ea0000;fill-rule:nonzero;stroke:none;stroke-width:1.6588068;stroke-linecap:butt;stroke-linejoin:miter;stroke-miterlimit:4;stroke-dasharray:none;stroke-opacity:1" />
      <path
         inkscape:original-d="m 91.009045,155.66116 c -6.621041,14.28431 23.861745,8.59562 11.341445,-4.49378"
         inkscape:path-effect="#path-effect860"
         inkscape:connector-curvature="0"
         id="path858"
         d="m 91.009045,155.66116 c -1.073841,2.09125 -1.218105,3.53802 -1.140277,4.48046 0.06011,0.72783 0.266572,1.29479 0.493932,1.72089 0.315504,0.59128 0.729818,1.02179 1.118529,1.32751 0.700098,0.55062 1.795697,1.06565 3.461314,1.20998 0.944821,0.0819 2.360794,0.0615 4.032719,-0.37855 1.100448,-0.28965 2.462468,-0.80637 3.702158,-1.68019 0.86369,-0.6088 1.73588,-1.44222 2.30254,-2.52611 0.0549,-0.10511 0.10503,-0.21254 0.15057,-0.32183 0.19049,-0.45723 0.29926,-0.94097 0.36068,-1.43825 0.0922,-0.74685 0.029,-1.53992 -0.21839,-2.3743 -0.41173,-1.38851 -1.33636,-2.90043 -2.92233,-4.51339 1.54398,1.65935 2.40581,3.18857 2.74927,4.56074 0.20579,0.82216 0.22458,1.58449 0.0953,2.28152 -0.0864,0.46602 -0.25999,0.89428 -0.46702,1.29775 -0.0497,0.0969 -0.10155,0.19275 -0.15484,0.28785 -0.55013,0.98162 -1.38235,1.73236 -2.21408,2.27908 -1.19478,0.78537 -2.497746,1.22856 -3.550443,1.46305 -1.597235,0.35579 -2.917068,0.31077 -3.772938,0.19841 -1.47038,-0.19303 -2.452033,-0.69128 -3.019886,-1.07401 -0.331632,-0.22352 -0.716178,-0.53796 -1.038682,-0.97941 -0.23241,-0.31813 -0.486818,-0.77494 -0.628103,-1.41178 -0.181841,-0.81965 -0.244043,-2.23315 0.659937,-4.40942 z"
         style="fill:#ea0000;fill-rule:nonzero;stroke:none;stroke-width:0.29958537px;stroke-linecap:butt;stroke-linejoin:miter;stroke-opacity:1" />
      <g
         id="g1626">
        <path
           inkscape:original-d="m 38.365447,281.62346 c 0,-3.55462 -0.515283,-26.70669 1.745223,-29.34009 20.933802,-24.38704 149.98214,-11.16093 65.19464,-56.77804 -119.929661,-64.52418 65.69531,-28.3627 -36.318547,-64.6197 C 46.339896,122.83665 42.608044,93.23708 39.200332,42.40652"
           inkscape:path-effect="#path-effect832"
           sodipodi:nodetypes="csssc"
           inkscape:connector-curvature="0"
           id="path1624"
           d="m 46.448104,281.62346 c 0,-0.31008 0.05489,-0.69011 -0.0072,-1.14672 -0.04528,-0.3328 -0.0904,-0.69998 -0.135944,-1.10522 -0.111971,-0.99643 -0.222799,-2.19115 -0.327286,-3.49841 -0.224921,-2.81403 -0.414078,-6.06041 -0.536328,-9.09995 -0.138383,-3.44063 -0.182654,-6.36647 -0.149703,-8.62905 0.01732,-1.18926 0.06388,-2.12514 0.0766,-2.63358 0.0067,-0.26622 0.0026,-0.41231 -0.06506,-0.36885 -0.07464,0.0479 -0.181685,0.32257 -0.774139,0.93438 0.77361,-0.98399 1.960876,-2.03072 3.626558,-3.09832 1.715545,-1.09954 3.810861,-2.14022 6.220152,-3.12101 5.09637,-2.07466 11.326882,-3.77298 17.751651,-5.23579 14.678937,-3.34214 29.9453,-5.59069 41.223,-8.31918 6.54707,-1.58397 11.95431,-3.30781 15.98885,-5.42371 2.19883,-1.15317 4.12041,-2.49054 5.57709,-4.09301 1.59782,-1.75774 2.64547,-3.85374 2.80621,-6.24125 0.1686,-2.50444 -0.67116,-4.81885 -1.9334,-6.85249 -1.35131,-2.17716 -3.3395,-4.2824 -5.70291,-6.31951 -5.33851,-4.60141 -13.44343,-9.56727 -23.2424,-14.72596 -16.22517,-8.59415 -25.745133,-14.75794 -31.528044,-19.24053 -3.364661,-2.6081 -5.565859,-4.72759 -6.994656,-6.43934 -1.560392,-1.86942 -2.165248,-3.21191 -2.36619,-4.11515 -0.103767,-0.46644 -0.107752,-0.84833 -0.05614,-1.17052 0.05352,-0.33408 0.177581,-0.67119 0.400463,-1.02465 0.470935,-0.74684 1.367169,-1.53757 2.782159,-2.31749 2.751855,-1.51679 6.812729,-2.65777 11.740952,-3.67189 4.211596,-0.86665 8.996797,-1.58622 13.25394,-2.53535 1.810103,-0.40357 3.624306,-0.88211 5.060533,-1.48496 0.675221,-0.28342 1.341243,-0.62443 1.906473,-1.04633 0.53249,-0.39746 1.08428,-0.94745 1.39525,-1.69619 0.15383,-0.37036 0.24097,-0.77253 0.24236,-1.19622 0.001,-0.41233 -0.0786,-0.80934 -0.21832,-1.18327 -0.26429,-0.7071 -0.74443,-1.33883 -1.33166,-1.91439 -1.09406,-1.07234 -2.861397,-2.23933 -5.468593,-3.59016 -2.440018,-1.26421 -5.740236,-2.75252 -10.202576,-4.54314 -4.15671,-1.66797 -9.378864,-3.62122 -15.992182,-5.94342 C 64.679686,127.9273 60.10164,125.11347 56.15377,120.12928 52.911815,116.0363 50.045879,110.43816 47.664449,102.46617 43.70274,89.204098 41.607475,71.864143 39.382796,42.394287 l -0.194697,-0.170231 -0.170231,0.194697 c 1.728183,29.490115 3.421325,46.92823 7.075412,60.493417 2.198934,8.16317 4.963178,14.09931 8.268341,18.58486 4.058195,5.50751 8.930514,8.79132 14.144339,10.7414 6.567738,2.36253 11.727652,4.34813 15.811116,6.04016 4.390858,1.81941 7.565998,3.31164 9.855538,4.55299 2.49761,1.35415 3.884227,2.38134 4.582183,3.12562 0.366712,0.39105 0.472788,0.63238 0.484069,0.70935 -0.0147,-0.10031 0.0069,0.15229 -0.01783,-0.0272 -0.007,-0.0511 9.13e-4,-0.0981 0.0075,-0.13346 0.01118,-0.0604 -0.03936,0.031 -0.272048,0.18114 -0.258358,0.16673 -0.639973,0.35432 -1.176483,0.55288 -1.144389,0.42354 -2.707255,0.79302 -4.483439,1.13267 -4.054643,0.77534 -8.89864,1.38365 -13.263656,2.15172 -4.973907,0.87522 -9.634348,1.96312 -13.097037,3.66525 -1.792756,0.88124 -3.487947,2.03468 -4.662305,3.61269 -0.589093,0.79158 -1.053456,1.69912 -1.317817,2.72772 -0.25851,1.00583 -0.312,2.07459 -0.148807,3.19124 0.306012,2.09389 1.363369,4.3089 3.194239,6.69002 1.691225,2.19951 4.15791,4.69194 7.675038,7.56407 6.049295,4.93993 15.796265,11.48788 32.090643,20.38954 9.61233,5.28648 17.01552,10.13376 21.55871,14.34708 2.00402,1.85851 3.30737,3.46367 4.02038,4.78609 0.66069,1.2254 0.68439,1.95602 0.59595,2.34258 -0.0662,0.28946 -0.27582,0.73259 -0.91514,1.32589 -0.65826,0.61089 -1.73456,1.34009 -3.45173,2.1288 -3.1874,1.464 -7.83334,2.80108 -14.21841,4.11421 -10.77021,2.21495 -25.978377,4.02426 -41.379905,7.04642 -6.635597,1.30206 -13.57191,2.93052 -19.552593,5.11328 -2.85008,1.04018 -5.627752,2.25727 -8.131407,3.70913 -2.404655,1.39444 -4.714866,3.09617 -6.600343,5.21236 -0.793936,0.8534 -1.281837,1.78707 -1.55838,2.38322 -0.298449,0.64338 -0.536134,1.30404 -0.728818,1.92427 -0.370163,1.19153 -0.671134,2.54923 -0.928085,4.01543 -0.478539,2.73061 -0.838193,6.03941 -1.137621,9.62914 -0.280301,3.36043 -0.469607,6.4616 -0.676557,9.50372 -0.09103,1.33814 -0.181031,2.58631 -0.272353,3.58242 -0.03726,0.40637 -0.07537,0.77789 -0.114317,1.09862 -0.05386,0.44347 0.0066,0.79421 0.0066,0.99596 z"
           style="fill:url(#linearGradient898);fill-opacity:1;fill-rule:nonzero;stroke:none;stroke-width:5.05568075;stroke-linecap:butt;stroke-linejoin:miter;stroke-miterlimit:4;stroke-dasharray:none;stroke-opacity:1" />
      </g>
    </g>
    <g
       id="g1690"
       transform="translate(27.819363,-16.640569)">
      <g
         transform="matrix(0.35568059,0,0,0.35568059,-29.710828,171.97928)"
         id="g957">
        <g
           id="g891"
           transform="matrix(1.6227323,0,0,1.6227323,-6.4148406,-18.92684)"
           style="stroke-width:0.69776839">
          <path
             sodipodi:nodetypes="cscc"
             inkscape:connector-curvature="0"
             id="path870"
             d="m 137.39434,149.77827 c 0,-19.27678 25.13542,-19.27678 25.13542,0 0,19.27679 -25.32441,32.31697 -25.32441,32.31697 h 26.08036"
             style="opacity:1;vector-effect:none;fill:none;fill-opacity:1;fill-rule:nonzero;stroke:#ea0000;stroke-width:1.02223063;stroke-linecap:butt;stroke-linejoin:miter;stroke-miterlimit:4;stroke-dasharray:none;stroke-dashoffset:0;stroke-opacity:1;paint-order:stroke fill markers" />
          <path
             sodipodi:nodetypes="ccccsc"
             inkscape:connector-curvature="0"
             d="m 170.13486,161.61129 v -11.83302 c 0,-19.27678 25.13542,-19.27678 25.13542,0 l -25.13542,17.85939 c 0,19.27678 25.13542,19.27678 25.13542,0 l 0,-12.04935"
             style="opacity:1;vector-effect:none;fill:none;fill-opacity:1;fill-rule:nonzero;stroke:#ea0000;stroke-width:1.02223063;stroke-linecap:butt;stroke-linejoin:miter;stroke-miterlimit:4;stroke-dasharray:none;stroke-dashoffset:0;stroke-opacity:1;paint-order:stroke fill markers"
             id="path877" />
          <path
             inkscape:connector-curvature="0"
             id="path882"
             d="m 202.99121,137.57373 h 5.87993 v 45.43581"
             style="opacity:1;vector-effect:none;fill:none;fill-opacity:1;fill-rule:nonzero;stroke:#ea0000;stroke-width:1.02223063;stroke-linecap:butt;stroke-linejoin:miter;stroke-miterlimit:4;stroke-dasharray:none;stroke-dashoffset:0;stroke-opacity:1;paint-order:stroke fill markers" />
          <path
             d="m 221.04971,149.77827 c 0,19.27678 25.13542,19.27678 25.13542,0 m -24.02316,18.47886 c -0.59248,18.96252 24.02316,18.65731 24.02316,-0.61947 m -25.13542,-17.85939 c 0,-19.27678 25.13542,-19.27678 25.13542,0 v 17.85939"
             style="opacity:1;vector-effect:none;fill:none;fill-opacity:1;fill-rule:nonzero;stroke:#ea0000;stroke-width:1.02223063;stroke-linecap:butt;stroke-linejoin:miter;stroke-miterlimit:4;stroke-dasharray:none;stroke-dashoffset:0;stroke-opacity:1;paint-order:stroke fill markers"
             id="path884"
             inkscape:connector-curvature="0"
             sodipodi:nodetypes="cccccsc" />
        </g>
        <text
           xml:space="preserve"
           style="font-style:normal;font-variant:normal;font-weight:300;font-stretch:normal;font-size:21.66634178px;line-height:139.99999762%;font-family:'Fira Sans';-inkscape-font-specification:'Fira Sans, Light';font-variant-ligatures:normal;font-variant-caps:normal;font-variant-numeric:normal;font-feature-settings:normal;text-align:center;letter-spacing:0px;word-spacing:0px;writing-mode:lr-tb;text-anchor:middle;fill:#000000;fill-opacity:1;stroke:none;stroke-width:0.90499741px;stroke-linecap:butt;stroke-linejoin:miter;stroke-opacity:1"
           x="305.51154"
           y="186.02193"
           id="text902"><tspan
             sodipodi:role="line"
             id="tspan900"
             x="305.51154"
             y="186.02193"
             style="font-style:normal;font-variant:normal;font-weight:300;font-stretch:normal;font-size:21.66634178px;font-family:'Fira Sans';-inkscape-font-specification:'Fira Sans, Light';font-variant-ligatures:normal;font-variant-caps:normal;font-variant-numeric:normal;font-feature-settings:normal;text-align:center;writing-mode:lr-tb;text-anchor:middle;stroke-width:0.90499741px">beste wensen voor</tspan></text>
        <text
           id="text906"
           y="159.73607"
           x="305.4108"
           style="font-style:normal;font-variant:normal;font-weight:300;font-stretch:normal;font-size:28.89203262px;line-height:139.99999762%;font-family:'Fira Sans';-inkscape-font-specification:'Fira Sans, Light';font-variant-ligatures:normal;font-variant-caps:normal;font-variant-numeric:normal;font-feature-settings:normal;text-align:center;letter-spacing:0px;word-spacing:0px;writing-mode:lr-tb;text-anchor:middle;fill:#000000;fill-opacity:1;stroke:none;stroke-width:1.7623359px;stroke-linecap:butt;stroke-linejoin:miter;stroke-opacity:1"
           xml:space="preserve"><tspan
             style="font-style:normal;font-variant:normal;font-weight:300;font-stretch:normal;font-size:28.89203262px;font-family:'Fira Sans';-inkscape-font-specification:'Fira Sans, Light';font-variant-ligatures:normal;font-variant-caps:normal;font-variant-numeric:normal;font-feature-settings:normal;text-align:center;writing-mode:lr-tb;text-anchor:middle;stroke-width:1.7623359px"
             y="159.73607"
             x="305.4108"
             id="tspan904"
             sodipodi:role="line">Zalig Kerstmis</tspan></text>
        <text
           xml:space="preserve"
           style="font-style:normal;font-variant:normal;font-weight:normal;font-stretch:normal;font-size:9.35112953px;line-height:139.99999762%;font-family:'Fira Sans';-inkscape-font-specification:'Fira Sans, Normal';font-variant-ligatures:normal;font-variant-caps:normal;font-variant-numeric:normal;font-feature-settings:normal;text-align:center;letter-spacing:0px;word-spacing:0px;writing-mode:lr-tb;text-anchor:middle;fill:#000000;fill-opacity:1;stroke:none;stroke-width:0.26458332px;stroke-linecap:butt;stroke-linejoin:miter;stroke-opacity:1"
           x="311.33533"
           y="169.93782"
           id="text944"><tspan
             sodipodi:role="line"
             id="tspan942"
             x="311.33533"
             y="169.93782"
             style="font-style:normal;font-variant:normal;font-weight:normal;font-stretch:normal;font-size:9.35112953px;font-family:'Fira Sans';-inkscape-font-specification:'Fira Sans, Normal';font-variant-ligatures:normal;font-variant-caps:normal;font-variant-numeric:normal;font-feature-settings:normal;text-align:center;writing-mode:lr-tb;text-anchor:middle;stroke-width:0.26458332px">en</tspan></text>
      </g>
      <g
         transform="matrix(0.28162298,0,0,0.28162298,4.169107,204.66373)"
         id="g1084">
        <text
           id="text902-4"
           y="263.28867"
           x="336.90024"
           style="font-style:normal;font-variant:normal;font-weight:600;font-stretch:normal;font-size:8.98445129px;line-height:139.99999762%;font-family:'Fira Sans';-inkscape-font-specification:'Fira Sans, Semi-Bold';font-variant-ligatures:normal;font-variant-caps:normal;font-variant-numeric:normal;font-feature-settings:normal;text-align:end;letter-spacing:0px;word-spacing:0px;writing-mode:lr-tb;text-anchor:end;fill:#ea0000;fill-opacity:1;stroke:none;stroke-width:1.11104274px;stroke-linecap:butt;stroke-linejoin:miter;stroke-opacity:1"
           xml:space="preserve"><tspan
             style="font-style:normal;font-variant:normal;font-weight:600;font-stretch:normal;font-size:8.98445129px;font-family:'Fira Sans';-inkscape-font-specification:'Fira Sans, Semi-Bold';font-variant-ligatures:normal;font-variant-caps:normal;font-variant-numeric:normal;font-feature-settings:normal;text-align:end;writing-mode:lr-tb;text-anchor:end;fill:#ea0000;fill-opacity:1;stroke-width:1.11104274px"
             y="263.28867"
             x="336.90024"
             id="tspan900-9"
             sodipodi:role="line">van</tspan></text>
        <path
           style="color:#000000;font-style:normal;font-variant:normal;font-weight:normal;font-stretch:normal;font-size:medium;line-height:normal;font-family:sans-serif;font-variant-ligatures:normal;font-variant-position:normal;font-variant-caps:normal;font-variant-numeric:normal;font-variant-alternates:normal;font-feature-settings:normal;text-indent:0;text-align:start;text-decoration:none;text-decoration-line:none;text-decoration-style:solid;text-decoration-color:#000000;letter-spacing:normal;word-spacing:normal;text-transform:none;writing-mode:lr-tb;direction:ltr;text-orientation:mixed;dominant-baseline:auto;baseline-shift:baseline;text-anchor:start;white-space:normal;shape-padding:0;clip-rule:nonzero;display:inline;overflow:visible;visibility:visible;opacity:1;isolation:auto;mix-blend-mode:normal;color-interpolation:sRGB;color-interpolation-filters:linearRGB;solid-color:#000000;solid-opacity:1;vector-effect:none;fill:#ea0000;fill-opacity:1;fill-rule:nonzero;stroke:none;stroke-width:1.46500003;stroke-linecap:butt;stroke-linejoin:miter;stroke-miterlimit:10;stroke-dasharray:none;stroke-dashoffset:0;stroke-opacity:1;paint-order:stroke fill markers;color-rendering:auto;image-rendering:auto;shape-rendering:auto;text-rendering:auto;enable-background:accumulate"
           d="m 348.19075,246.36178 c -1.02711,7.42327 -3.04774,11.70475 -4.7793,13.78731 -0.86577,1.04128 -1.66241,1.47007 -2.07812,1.52539 -0.20785,0.0277 -0.30657,-0.009 -0.39062,-0.0684 -0.0841,-0.0597 -0.17987,-0.17274 -0.2461,-0.41992 l -1.41406,0.37891 c 0.13383,0.49947 0.40255,0.94641 0.81055,1.23633 0.408,0.28991 0.92941,0.39327 1.43359,0.32617 1.00836,-0.1342 2.00361,-0.8309 3.00976,-2.04102 1.30543,-1.57004 2.59665,-4.18559 3.64844,-7.81836 v 6.50782 c 2.22911,-2.16459 3.40252,-3.57239 4.02149,-5.63191 v 9.11237 h 1.46484 v -16.89469 h -1.46289 c 0,0 -0.17649,2.26585 -0.75586,4.92403 -0.38715,1.77628 -1.05165,3.42906 -1.80273,4.75586 v -9.67989 z"
           id="path1019"
           inkscape:connector-curvature="0"
           sodipodi:nodetypes="cccccccscccccccccccc" />
        <path
           style="color:#000000;font-style:normal;font-variant:normal;font-weight:normal;font-stretch:normal;font-size:medium;line-height:normal;font-family:sans-serif;font-variant-ligatures:normal;font-variant-position:normal;font-variant-caps:normal;font-variant-numeric:normal;font-variant-alternates:normal;font-feature-settings:normal;text-indent:0;text-align:start;text-decoration:none;text-decoration-line:none;text-decoration-style:solid;text-decoration-color:#000000;letter-spacing:normal;word-spacing:normal;text-transform:none;writing-mode:lr-tb;direction:ltr;text-orientation:mixed;dominant-baseline:auto;baseline-shift:baseline;text-anchor:start;white-space:normal;shape-padding:0;clip-rule:nonzero;display:inline;overflow:visible;visibility:visible;opacity:1;isolation:auto;mix-blend-mode:normal;color-interpolation:sRGB;color-interpolation-filters:linearRGB;solid-color:#000000;solid-opacity:1;vector-effect:none;fill:#ea0000;fill-opacity:1;fill-rule:nonzero;stroke:none;stroke-width:1.46499991;stroke-linecap:butt;stroke-linejoin:miter;stroke-miterlimit:4;stroke-dasharray:none;stroke-dashoffset:0;stroke-opacity:1;paint-order:stroke fill markers;color-rendering:auto;image-rendering:auto;shape-rendering:auto;text-rendering:auto;enable-background:accumulate"
           d="m 354.10481,258.77995 v 4.47656 h 1.4668 v -4.47656 z"
           id="path1021"
           inkscape:connector-curvature="0" />
        <circle
           style="opacity:1;vector-effect:none;fill:#ea0000;fill-opacity:1;fill-rule:nonzero;stroke:none;stroke-width:0.40000001;stroke-linecap:butt;stroke-linejoin:miter;stroke-miterlimit:4;stroke-dasharray:none;stroke-dashoffset:0;stroke-opacity:1;paint-order:stroke fill markers"
           id="path1025"
           cx="354.85577"
           cy="257.25717"
           r="0.72925913" />
        <path
           style="color:#000000;font-style:normal;font-variant:normal;font-weight:normal;font-stretch:normal;font-size:medium;line-height:normal;font-family:sans-serif;font-variant-ligatures:normal;font-variant-position:normal;font-variant-caps:normal;font-variant-numeric:normal;font-variant-alternates:normal;font-feature-settings:normal;text-indent:0;text-align:start;text-decoration:none;text-decoration-line:none;text-decoration-style:solid;text-decoration-color:#000000;letter-spacing:normal;word-spacing:normal;text-transform:none;writing-mode:lr-tb;direction:ltr;text-orientation:mixed;dominant-baseline:auto;baseline-shift:baseline;text-anchor:start;white-space:normal;shape-padding:0;clip-rule:nonzero;display:inline;overflow:visible;visibility:visible;opacity:1;isolation:auto;mix-blend-mode:normal;color-interpolation:sRGB;color-interpolation-filters:linearRGB;solid-color:#000000;solid-opacity:1;vector-effect:none;fill:#ea0000;fill-opacity:1;fill-rule:nonzero;stroke:none;stroke-width:1.46500003;stroke-linecap:butt;stroke-linejoin:miter;stroke-miterlimit:4;stroke-dasharray:none;stroke-dashoffset:0;stroke-opacity:1;paint-order:stroke fill markers;color-rendering:auto;image-rendering:auto;shape-rendering:auto;text-rendering:auto;enable-background:accumulate"
           d="m 358.77083,252.94401 c 0,1.89714 0,3.79427 0,5.69141 -0.74309,-0.003 -1.61007,-0.0318 -2.16381,0.55519 -0.69996,0.73294 -0.81912,1.86671 -0.56084,2.81142 0.23007,0.71434 0.90602,1.23812 1.65143,1.3004 0.8664,0.11927 1.73402,-0.11469 2.53806,-0.42092 0,-3.3125 0,-6.625 0,-9.9375 -0.48828,0 -0.97656,0 -1.46484,0 z m 0,7.11328 c 0,0.56706 0,1.13412 0,1.70118 -0.42619,0.12527 -1.17852,0.26608 -1.34858,-0.27837 -0.0582,-0.42567 -0.13772,-1.06094 0.30378,-1.30463 0.33133,-0.12573 0.69865,-0.079 1.0448,-0.11818 z"
           id="path1027"
           inkscape:connector-curvature="0" />
        <path
           style="color:#000000;font-style:normal;font-variant:normal;font-weight:normal;font-stretch:normal;font-size:medium;line-height:normal;font-family:sans-serif;font-variant-ligatures:normal;font-variant-position:normal;font-variant-caps:normal;font-variant-numeric:normal;font-variant-alternates:normal;font-feature-settings:normal;text-indent:0;text-align:start;text-decoration:none;text-decoration-line:none;text-decoration-style:solid;text-decoration-color:#000000;letter-spacing:normal;word-spacing:normal;text-transform:none;writing-mode:lr-tb;direction:ltr;text-orientation:mixed;dominant-baseline:auto;baseline-shift:baseline;text-anchor:start;white-space:normal;shape-padding:0;clip-rule:nonzero;display:inline;overflow:visible;visibility:visible;opacity:1;isolation:auto;mix-blend-mode:normal;color-interpolation:sRGB;color-interpolation-filters:linearRGB;solid-color:#000000;solid-opacity:1;vector-effect:none;fill:#ea0000;fill-opacity:1;fill-rule:nonzero;stroke:none;stroke-width:1.46500003;stroke-linecap:butt;stroke-linejoin:miter;stroke-miterlimit:4;stroke-dasharray:none;stroke-dashoffset:0;stroke-opacity:1;paint-order:stroke fill markers;color-rendering:auto;image-rendering:auto;shape-rendering:auto;text-rendering:auto;enable-background:accumulate"
           d="m 364.20833,258.5944 c -0.98976,-0.004 -2.05834,0.15569 -2.84778,0.79818 -0.76804,0.62333 -0.95455,1.77362 -0.54124,2.65132 0.28216,0.67792 0.94013,1.16219 1.66993,1.23496 0.29265,0.0962 0.77381,-0.0157 0.95737,0.15755 -0.006,1.02726 0.0123,2.05519 -0.01,3.08198 -0.007,0.38744 -0.23777,0.86516 -0.68731,0.83773 -0.44146,0.031 -0.67706,-0.43368 -0.68351,-0.81641 0.0951,-0.30658 -0.17477,-0.22489 -0.36517,-0.23242 -0.36984,0 -0.73969,0 -1.10953,0 -0.0242,1.04254 0.60581,2.14564 1.64538,2.44139 0.90309,0.27784 1.88819,-0.25317 2.3179,-1.05918 0.3502,-0.57797 0.37266,-1.2646 0.35703,-1.92033 0,-2.38247 0,-4.76495 0,-7.14742 -0.23437,-0.009 -0.46875,-0.0182 -0.70312,-0.0274 z m -0.76172,1.55079 c 0,0.5931 0,1.18619 0,1.77929 -0.42171,-0.0855 -0.9464,0.003 -1.2621,-0.35077 -0.17816,-0.32949 -0.19677,-0.85294 0.15041,-1.0843 0.32194,-0.22804 0.71804,-0.3472 1.11169,-0.34422 z"
           id="path1029"
           inkscape:connector-curvature="0" />
        <path
           style="color:#000000;font-style:normal;font-variant:normal;font-weight:normal;font-stretch:normal;font-size:medium;line-height:normal;font-family:sans-serif;font-variant-ligatures:normal;font-variant-position:normal;font-variant-caps:normal;font-variant-numeric:normal;font-variant-alternates:normal;font-feature-settings:normal;text-indent:0;text-align:start;text-decoration:none;text-decoration-line:none;text-decoration-style:solid;text-decoration-color:#000000;letter-spacing:normal;word-spacing:normal;text-transform:none;writing-mode:lr-tb;direction:ltr;text-orientation:mixed;dominant-baseline:auto;baseline-shift:baseline;text-anchor:start;white-space:normal;shape-padding:0;clip-rule:nonzero;display:inline;overflow:visible;visibility:visible;opacity:1;isolation:auto;mix-blend-mode:normal;color-interpolation:sRGB;color-interpolation-filters:linearRGB;solid-color:#000000;solid-opacity:1;vector-effect:none;fill:#ea0000;fill-opacity:1;fill-rule:nonzero;stroke:none;stroke-width:1.46500003;stroke-linecap:butt;stroke-linejoin:miter;stroke-miterlimit:4;stroke-dasharray:none;stroke-dashoffset:0;stroke-opacity:1;paint-order:stroke fill markers;color-rendering:auto;image-rendering:auto;shape-rendering:auto;text-rendering:auto;enable-background:accumulate"
           d="m 365.72464,259.41877 c -0.86996,1.08734 -0.67456,2.98782 0.54964,3.67189 0.84091,0.4699 2.43065,0.32994 3.27613,0.17925 l -0.002,-4.73996 c -1.28916,-0.008 -3.01464,-0.0311 -3.82349,0.88882 z m 2.35869,0.66978 v 1.97265 c -0.48776,0.0862 -1.08074,-0.0802 -1.30888,-0.55521 -0.10275,-0.29158 -0.15568,-0.6218 -0.0694,-0.92417 0.073,-0.2645 0.34691,-0.38213 0.59645,-0.41424 0.25891,-0.042 0.52235,-0.0412 0.78186,-0.079 z"
           id="path1031"
           inkscape:connector-curvature="0"
           sodipodi:nodetypes="csccccccccccc" />
        <path
           style="color:#000000;font-style:normal;font-variant:normal;font-weight:normal;font-stretch:normal;font-size:medium;line-height:normal;font-family:sans-serif;font-variant-ligatures:normal;font-variant-position:normal;font-variant-caps:normal;font-variant-numeric:normal;font-variant-alternates:normal;font-feature-settings:normal;text-indent:0;text-align:start;text-decoration:none;text-decoration-line:none;text-decoration-style:solid;text-decoration-color:#000000;letter-spacing:normal;word-spacing:normal;text-transform:none;writing-mode:lr-tb;direction:ltr;text-orientation:mixed;dominant-baseline:auto;baseline-shift:baseline;text-anchor:start;white-space:normal;shape-padding:0;clip-rule:nonzero;display:inline;overflow:visible;visibility:visible;opacity:1;isolation:auto;mix-blend-mode:normal;color-interpolation:sRGB;color-interpolation-filters:linearRGB;solid-color:#000000;solid-opacity:1;vector-effect:none;fill:#ea0000;fill-opacity:1;fill-rule:nonzero;stroke:none;stroke-width:1.46499979;stroke-linecap:butt;stroke-linejoin:miter;stroke-miterlimit:4;stroke-dasharray:none;stroke-dashoffset:0;stroke-opacity:1;paint-order:stroke fill markers;color-rendering:auto;image-rendering:auto;shape-rendering:auto;text-rendering:auto;enable-background:accumulate"
           d="m 370.12263,258.27638 v 4.97644 h 1.46449 v -3.63647 c 0.50406,-0.21782 1.0042,-0.34505 1.52898,-0.28415 l 1.07032,-0.94243 c -0.33311,-0.36489 -0.82434,-0.41716 -1.29866,-0.42879 -1.06315,0.0607 -1.73027,0.3154 -2.76513,0.3154 z"
           id="path1033"
           inkscape:connector-curvature="0"
           sodipodi:nodetypes="cccccccc" />
        <path
           style="color:#000000;font-style:normal;font-variant:normal;font-weight:normal;font-stretch:normal;font-size:medium;line-height:normal;font-family:sans-serif;font-variant-ligatures:normal;font-variant-position:normal;font-variant-caps:normal;font-variant-numeric:normal;font-variant-alternates:normal;font-feature-settings:normal;text-indent:0;text-align:start;text-decoration:none;text-decoration-line:none;text-decoration-style:solid;text-decoration-color:#000000;letter-spacing:normal;word-spacing:normal;text-transform:none;writing-mode:lr-tb;direction:ltr;text-orientation:mixed;dominant-baseline:auto;baseline-shift:baseline;text-anchor:start;white-space:normal;shape-padding:0;clip-rule:nonzero;display:inline;overflow:visible;visibility:visible;opacity:1;isolation:auto;mix-blend-mode:normal;color-interpolation:sRGB;color-interpolation-filters:linearRGB;solid-color:#000000;solid-opacity:1;vector-effect:none;fill:#ea0000;fill-opacity:1;fill-rule:nonzero;stroke:none;stroke-width:1.46500003;stroke-linecap:butt;stroke-linejoin:miter;stroke-miterlimit:4;stroke-dasharray:none;stroke-dashoffset:0;stroke-opacity:1;paint-order:stroke fill markers;color-rendering:auto;image-rendering:auto;shape-rendering:auto;text-rendering:auto;enable-background:accumulate"
           d="m 375.70052,253.14519 c 0,1.85417 0,3.70833 0,5.5625 -0.81968,0.0863 -1.76802,0.20334 -2.27841,0.93874 -0.73973,0.92455 -0.82186,2.50057 0.17122,3.27865 0.92843,0.64138 2.15733,0.42908 3.16167,0.10408 0.43926,0.004 0.44238,-0.30709 0.41036,-0.63977 0,-3.0814 0,-6.1628 0,-9.2442 -0.48828,0 -0.97656,0 -1.46484,0 z m 0,7.00586 c 0,0.53385 0,1.06771 0,1.60156 -0.42486,0.11753 -1.21979,0.29387 -1.3647,-0.26973 -0.11893,-0.55377 0.24148,-1.21363 0.84726,-1.24381 0.17236,-0.0298 0.34781,-0.0435 0.51744,-0.088 z"
           id="path1037"
           inkscape:connector-curvature="0" />
      </g>
    </g>
    <g
       id="g1642"
       transform="matrix(0.28162298,0,0,0.28162298,25.852495,210.12004)">
      <path
         inkscape:connector-curvature="0"
         id="path1113"
         d="m 334.21576,268.5175 a 3.8802299,3.8802299 0 0 0 -3.88038,3.88038 3.8802299,3.8802299 0 0 0 3.88038,3.88038 3.8802299,3.8802299 0 0 0 3.88037,-3.88038 3.8802299,3.8802299 0 0 0 -3.88037,-3.88038 z m -1.13274,2.25516 c 0.40013,0 0.68056,0.12011 0.93843,0.33796 l -0.34674,0.41341 c -0.17341,-0.13341 -0.34708,-0.21342 -0.55605,-0.21342 -0.39568,0 -0.67127,0.31594 -0.67127,1.07177 0,0.74249 0.27104,1.05833 0.68005,1.05833 0.24453,0 0.42286,-0.11125 0.60513,-0.24908 l 0.32454,0.41755 c -0.20452,0.20452 -0.53798,0.39584 -0.9648,0.39584 -0.84474,0 -1.40973,-0.56893 -1.40973,-1.62264 0,-1.03149 0.60013,-1.60972 1.40044,-1.60972 z m 2.4665,0 c 0.40016,0 0.68006,0.12011 0.93795,0.33796 l -0.34677,0.41341 c -0.1734,-0.13341 -0.34655,-0.21342 -0.55551,-0.21342 -0.39571,0 -0.67181,0.31594 -0.67181,1.07177 0,0.74249 0.27157,1.05833 0.68059,1.05833 0.24453,0 0.42233,-0.11125 0.60463,-0.24908 l 0.32451,0.41755 c -0.20453,0.20452 -0.53798,0.39584 -0.96481,0.39584 -0.84476,0 -1.40919,-0.56893 -1.40919,-1.62264 0,-1.03149 0.60012,-1.60972 1.40041,-1.60972 z"
         style="opacity:1;vector-effect:none;fill:#ff5e5e;fill-opacity:1;fill-rule:nonzero;stroke:none;stroke-width:5.53700686;stroke-linecap:butt;stroke-linejoin:miter;stroke-miterlimit:10;stroke-dasharray:none;stroke-dashoffset:0;stroke-opacity:1;paint-order:stroke fill markers" />
      <text
         id="text1561"
         y="273.8403"
         x="399.53256"
         style="font-style:normal;font-variant:normal;font-weight:normal;font-stretch:normal;font-size:4.14730597px;line-height:139.99999762%;font-family:'Fira Sans';-inkscape-font-specification:'Fira Sans, Normal';font-variant-ligatures:normal;font-variant-caps:normal;font-variant-numeric:normal;font-feature-settings:normal;text-align:end;letter-spacing:0px;word-spacing:0px;writing-mode:lr-tb;text-anchor:end;fill:#ff5e5e;fill-opacity:1;stroke:none;stroke-width:0.31105047px;stroke-linecap:butt;stroke-linejoin:miter;stroke-opacity:1"
         xml:space="preserve"><tspan
           style="font-style:normal;font-variant:normal;font-weight:normal;font-stretch:normal;font-size:4.14730597px;font-family:'Fira Sans';-inkscape-font-specification:'Fira Sans, Normal';font-variant-ligatures:normal;font-variant-caps:normal;font-variant-numeric:normal;font-feature-settings:normal;text-align:end;writing-mode:lr-tb;text-anchor:end;fill:#ff5e5e;fill-opacity:1;stroke-width:0.31105047px"
           y="273.8403"
           x="399.53256"
           id="tspan1559"
           sodipodi:role="line">0 behalve het               -tekstlogo</tspan></text>
      <g
         style="fill:#ff5e5e;fill-opacity:1"
         transform="matrix(0.38004898,0,0,0.38004898,231.69547,169.15073)"
         id="g1607">
        <path
           sodipodi:nodetypes="cccccccscccccccccccc"
           inkscape:connector-curvature="0"
           id="path1571"
           d="m 361.58657,258.82968 c -1.02711,7.42327 -3.04774,11.70475 -4.7793,13.78731 -0.86577,1.04128 -1.66241,1.47007 -2.07812,1.52539 -0.20785,0.0277 -0.30657,-0.009 -0.39062,-0.0684 -0.0841,-0.0597 -0.17987,-0.17274 -0.2461,-0.41992 l -1.41406,0.37891 c 0.13383,0.49947 0.40255,0.94641 0.81055,1.23633 0.408,0.28991 0.92941,0.39327 1.43359,0.32617 1.00836,-0.1342 2.00361,-0.8309 3.00976,-2.04102 1.30543,-1.57004 2.59665,-4.18559 3.64844,-7.81836 v 6.50782 c 2.22911,-2.16459 3.40252,-3.57239 4.02149,-5.63191 v 9.11237 h 1.46484 v -16.89469 h -1.46289 c 0,0 -0.17649,2.26585 -0.75586,4.92403 -0.38715,1.77628 -1.05165,3.42906 -1.80273,4.75586 v -9.67989 z"
           style="color:#000000;font-style:normal;font-variant:normal;font-weight:normal;font-stretch:normal;font-size:medium;line-height:normal;font-family:sans-serif;font-variant-ligatures:normal;font-variant-position:normal;font-variant-caps:normal;font-variant-numeric:normal;font-variant-alternates:normal;font-feature-settings:normal;text-indent:0;text-align:start;text-decoration:none;text-decoration-line:none;text-decoration-style:solid;text-decoration-color:#000000;letter-spacing:normal;word-spacing:normal;text-transform:none;writing-mode:lr-tb;direction:ltr;text-orientation:mixed;dominant-baseline:auto;baseline-shift:baseline;text-anchor:start;white-space:normal;shape-padding:0;clip-rule:nonzero;display:inline;overflow:visible;visibility:visible;opacity:1;isolation:auto;mix-blend-mode:normal;color-interpolation:sRGB;color-interpolation-filters:linearRGB;solid-color:#000000;solid-opacity:1;vector-effect:none;fill:#ff5e5e;fill-opacity:1;fill-rule:nonzero;stroke:none;stroke-width:1.46500003;stroke-linecap:butt;stroke-linejoin:miter;stroke-miterlimit:10;stroke-dasharray:none;stroke-dashoffset:0;stroke-opacity:1;paint-order:stroke fill markers;color-rendering:auto;image-rendering:auto;shape-rendering:auto;text-rendering:auto;enable-background:accumulate" />
        <path
           inkscape:connector-curvature="0"
           id="path1573"
           d="m 367.50063,271.24785 v 4.47656 h 1.4668 v -4.47656 z"
           style="color:#000000;font-style:normal;font-variant:normal;font-weight:normal;font-stretch:normal;font-size:medium;line-height:normal;font-family:sans-serif;font-variant-ligatures:normal;font-variant-position:normal;font-variant-caps:normal;font-variant-numeric:normal;font-variant-alternates:normal;font-feature-settings:normal;text-indent:0;text-align:start;text-decoration:none;text-decoration-line:none;text-decoration-style:solid;text-decoration-color:#000000;letter-spacing:normal;word-spacing:normal;text-transform:none;writing-mode:lr-tb;direction:ltr;text-orientation:mixed;dominant-baseline:auto;baseline-shift:baseline;text-anchor:start;white-space:normal;shape-padding:0;clip-rule:nonzero;display:inline;overflow:visible;visibility:visible;opacity:1;isolation:auto;mix-blend-mode:normal;color-interpolation:sRGB;color-interpolation-filters:linearRGB;solid-color:#000000;solid-opacity:1;vector-effect:none;fill:#ff5e5e;fill-opacity:1;fill-rule:nonzero;stroke:none;stroke-width:1.46499991;stroke-linecap:butt;stroke-linejoin:miter;stroke-miterlimit:4;stroke-dasharray:none;stroke-dashoffset:0;stroke-opacity:1;paint-order:stroke fill markers;color-rendering:auto;image-rendering:auto;shape-rendering:auto;text-rendering:auto;enable-background:accumulate" />
        <circle
           r="0.72925913"
           cy="269.72507"
           cx="368.25159"
           id="circle1575"
           style="opacity:1;vector-effect:none;fill:#ff5e5e;fill-opacity:1;fill-rule:nonzero;stroke:none;stroke-width:0.40000001;stroke-linecap:butt;stroke-linejoin:miter;stroke-miterlimit:4;stroke-dasharray:none;stroke-dashoffset:0;stroke-opacity:1;paint-order:stroke fill markers" />
        <path
           inkscape:connector-curvature="0"
           id="path1577"
           d="m 372.16665,265.41191 c 0,1.89714 0,3.79427 0,5.69141 -0.74309,-0.003 -1.61007,-0.0318 -2.16381,0.55519 -0.69996,0.73294 -0.81912,1.86671 -0.56084,2.81142 0.23007,0.71434 0.90602,1.23812 1.65143,1.3004 0.8664,0.11927 1.73402,-0.11469 2.53806,-0.42092 0,-3.3125 0,-6.625 0,-9.9375 -0.48828,0 -0.97656,0 -1.46484,0 z m 0,7.11328 c 0,0.56706 0,1.13412 0,1.70118 -0.42619,0.12527 -1.17852,0.26608 -1.34858,-0.27837 -0.0582,-0.42567 -0.13772,-1.06094 0.30378,-1.30463 0.33133,-0.12573 0.69865,-0.079 1.0448,-0.11818 z"
           style="color:#000000;font-style:normal;font-variant:normal;font-weight:normal;font-stretch:normal;font-size:medium;line-height:normal;font-family:sans-serif;font-variant-ligatures:normal;font-variant-position:normal;font-variant-caps:normal;font-variant-numeric:normal;font-variant-alternates:normal;font-feature-settings:normal;text-indent:0;text-align:start;text-decoration:none;text-decoration-line:none;text-decoration-style:solid;text-decoration-color:#000000;letter-spacing:normal;word-spacing:normal;text-transform:none;writing-mode:lr-tb;direction:ltr;text-orientation:mixed;dominant-baseline:auto;baseline-shift:baseline;text-anchor:start;white-space:normal;shape-padding:0;clip-rule:nonzero;display:inline;overflow:visible;visibility:visible;opacity:1;isolation:auto;mix-blend-mode:normal;color-interpolation:sRGB;color-interpolation-filters:linearRGB;solid-color:#000000;solid-opacity:1;vector-effect:none;fill:#ff5e5e;fill-opacity:1;fill-rule:nonzero;stroke:none;stroke-width:1.46500003;stroke-linecap:butt;stroke-linejoin:miter;stroke-miterlimit:4;stroke-dasharray:none;stroke-dashoffset:0;stroke-opacity:1;paint-order:stroke fill markers;color-rendering:auto;image-rendering:auto;shape-rendering:auto;text-rendering:auto;enable-background:accumulate" />
        <path
           inkscape:connector-curvature="0"
           id="path1579"
           d="m 377.60415,271.0623 c -0.98976,-0.004 -2.05834,0.15569 -2.84778,0.79818 -0.76804,0.62333 -0.95455,1.77362 -0.54124,2.65132 0.28216,0.67792 0.94013,1.16219 1.66993,1.23496 0.29265,0.0962 0.77381,-0.0157 0.95737,0.15755 -0.006,1.02726 0.0123,2.05519 -0.01,3.08198 -0.007,0.38744 -0.23777,0.86516 -0.68731,0.83773 -0.44146,0.031 -0.67706,-0.43368 -0.68351,-0.81641 0.0951,-0.30658 -0.17477,-0.22489 -0.36517,-0.23242 -0.36984,0 -0.73969,0 -1.10953,0 -0.0242,1.04254 0.60581,2.14564 1.64538,2.44139 0.90309,0.27784 1.88819,-0.25317 2.3179,-1.05918 0.3502,-0.57797 0.37266,-1.2646 0.35703,-1.92033 0,-2.38247 0,-4.76495 0,-7.14742 -0.23437,-0.009 -0.46875,-0.0182 -0.70312,-0.0274 z m -0.76172,1.55079 c 0,0.5931 0,1.18619 0,1.77929 -0.42171,-0.0855 -0.9464,0.003 -1.2621,-0.35077 -0.17816,-0.32949 -0.19677,-0.85294 0.15041,-1.0843 0.32194,-0.22804 0.71804,-0.3472 1.11169,-0.34422 z"
           style="color:#000000;font-style:normal;font-variant:normal;font-weight:normal;font-stretch:normal;font-size:medium;line-height:normal;font-family:sans-serif;font-variant-ligatures:normal;font-variant-position:normal;font-variant-caps:normal;font-variant-numeric:normal;font-variant-alternates:normal;font-feature-settings:normal;text-indent:0;text-align:start;text-decoration:none;text-decoration-line:none;text-decoration-style:solid;text-decoration-color:#000000;letter-spacing:normal;word-spacing:normal;text-transform:none;writing-mode:lr-tb;direction:ltr;text-orientation:mixed;dominant-baseline:auto;baseline-shift:baseline;text-anchor:start;white-space:normal;shape-padding:0;clip-rule:nonzero;display:inline;overflow:visible;visibility:visible;opacity:1;isolation:auto;mix-blend-mode:normal;color-interpolation:sRGB;color-interpolation-filters:linearRGB;solid-color:#000000;solid-opacity:1;vector-effect:none;fill:#ff5e5e;fill-opacity:1;fill-rule:nonzero;stroke:none;stroke-width:1.46500003;stroke-linecap:butt;stroke-linejoin:miter;stroke-miterlimit:4;stroke-dasharray:none;stroke-dashoffset:0;stroke-opacity:1;paint-order:stroke fill markers;color-rendering:auto;image-rendering:auto;shape-rendering:auto;text-rendering:auto;enable-background:accumulate" />
        <path
           sodipodi:nodetypes="csccccccccccc"
           inkscape:connector-curvature="0"
           id="path1581"
           d="m 379.12046,271.88667 c -0.86996,1.08734 -0.67456,2.98782 0.54964,3.67189 0.84091,0.4699 2.43065,0.32994 3.27613,0.17925 l -0.002,-4.73996 c -1.28916,-0.008 -3.01464,-0.0311 -3.82349,0.88882 z m 2.35869,0.66978 v 1.97265 c -0.48776,0.0862 -1.08074,-0.0802 -1.30888,-0.55521 -0.10275,-0.29158 -0.15568,-0.6218 -0.0694,-0.92417 0.073,-0.2645 0.34691,-0.38213 0.59645,-0.41424 0.25891,-0.042 0.52235,-0.0412 0.78186,-0.079 z"
           style="color:#000000;font-style:normal;font-variant:normal;font-weight:normal;font-stretch:normal;font-size:medium;line-height:normal;font-family:sans-serif;font-variant-ligatures:normal;font-variant-position:normal;font-variant-caps:normal;font-variant-numeric:normal;font-variant-alternates:normal;font-feature-settings:normal;text-indent:0;text-align:start;text-decoration:none;text-decoration-line:none;text-decoration-style:solid;text-decoration-color:#000000;letter-spacing:normal;word-spacing:normal;text-transform:none;writing-mode:lr-tb;direction:ltr;text-orientation:mixed;dominant-baseline:auto;baseline-shift:baseline;text-anchor:start;white-space:normal;shape-padding:0;clip-rule:nonzero;display:inline;overflow:visible;visibility:visible;opacity:1;isolation:auto;mix-blend-mode:normal;color-interpolation:sRGB;color-interpolation-filters:linearRGB;solid-color:#000000;solid-opacity:1;vector-effect:none;fill:#ff5e5e;fill-opacity:1;fill-rule:nonzero;stroke:none;stroke-width:1.46500003;stroke-linecap:butt;stroke-linejoin:miter;stroke-miterlimit:4;stroke-dasharray:none;stroke-dashoffset:0;stroke-opacity:1;paint-order:stroke fill markers;color-rendering:auto;image-rendering:auto;shape-rendering:auto;text-rendering:auto;enable-background:accumulate" />
        <path
           sodipodi:nodetypes="cccccccc"
           inkscape:connector-curvature="0"
           id="path1583"
           d="m 383.51845,270.74428 v 4.97644 h 1.46449 v -3.63647 c 0.50406,-0.21782 1.0042,-0.34505 1.52898,-0.28415 l 1.07032,-0.94243 c -0.33311,-0.36489 -0.82434,-0.41716 -1.29866,-0.42879 -1.06315,0.0607 -1.73027,0.3154 -2.76513,0.3154 z"
           style="color:#000000;font-style:normal;font-variant:normal;font-weight:normal;font-stretch:normal;font-size:medium;line-height:normal;font-family:sans-serif;font-variant-ligatures:normal;font-variant-position:normal;font-variant-caps:normal;font-variant-numeric:normal;font-variant-alternates:normal;font-feature-settings:normal;text-indent:0;text-align:start;text-decoration:none;text-decoration-line:none;text-decoration-style:solid;text-decoration-color:#000000;letter-spacing:normal;word-spacing:normal;text-transform:none;writing-mode:lr-tb;direction:ltr;text-orientation:mixed;dominant-baseline:auto;baseline-shift:baseline;text-anchor:start;white-space:normal;shape-padding:0;clip-rule:nonzero;display:inline;overflow:visible;visibility:visible;opacity:1;isolation:auto;mix-blend-mode:normal;color-interpolation:sRGB;color-interpolation-filters:linearRGB;solid-color:#000000;solid-opacity:1;vector-effect:none;fill:#ff5e5e;fill-opacity:1;fill-rule:nonzero;stroke:none;stroke-width:1.46499979;stroke-linecap:butt;stroke-linejoin:miter;stroke-miterlimit:4;stroke-dasharray:none;stroke-dashoffset:0;stroke-opacity:1;paint-order:stroke fill markers;color-rendering:auto;image-rendering:auto;shape-rendering:auto;text-rendering:auto;enable-background:accumulate" />
        <path
           inkscape:connector-curvature="0"
           id="path1585"
           d="m 389.09634,265.61309 c 0,1.85417 0,3.70833 0,5.5625 -0.81968,0.0863 -1.76802,0.20334 -2.27841,0.93874 -0.73973,0.92455 -0.82186,2.50057 0.17122,3.27865 0.92843,0.64138 2.15733,0.42908 3.16167,0.10408 0.43926,0.004 0.44238,-0.30709 0.41036,-0.63977 0,-3.0814 0,-6.1628 0,-9.2442 -0.48828,0 -0.97656,0 -1.46484,0 z m 0,7.00586 c 0,0.53385 0,1.06771 0,1.60156 -0.42486,0.11753 -1.21979,0.29387 -1.3647,-0.26973 -0.11893,-0.55377 0.24148,-1.21363 0.84726,-1.24381 0.17236,-0.0298 0.34781,-0.0435 0.51744,-0.088 z"
           style="color:#000000;font-style:normal;font-variant:normal;font-weight:normal;font-stretch:normal;font-size:medium;line-height:normal;font-family:sans-serif;font-variant-ligatures:normal;font-variant-position:normal;font-variant-caps:normal;font-variant-numeric:normal;font-variant-alternates:normal;font-feature-settings:normal;text-indent:0;text-align:start;text-decoration:none;text-decoration-line:none;text-decoration-style:solid;text-decoration-color:#000000;letter-spacing:normal;word-spacing:normal;text-transform:none;writing-mode:lr-tb;direction:ltr;text-orientation:mixed;dominant-baseline:auto;baseline-shift:baseline;text-anchor:start;white-space:normal;shape-padding:0;clip-rule:nonzero;display:inline;overflow:visible;visibility:visible;opacity:1;isolation:auto;mix-blend-mode:normal;color-interpolation:sRGB;color-interpolation-filters:linearRGB;solid-color:#000000;solid-opacity:1;vector-effect:none;fill:#ff5e5e;fill-opacity:1;fill-rule:nonzero;stroke:none;stroke-width:1.46500003;stroke-linecap:butt;stroke-linejoin:miter;stroke-miterlimit:4;stroke-dasharray:none;stroke-dashoffset:0;stroke-opacity:1;paint-order:stroke fill markers;color-rendering:auto;image-rendering:auto;shape-rendering:auto;text-rendering:auto;enable-background:accumulate" />
      </g>
    </g>
  </g>
</svg>
